('D:\\PyCharm_WorkStation\\pygame\\plane\\dist\\MainMenu.exe',
 False,
 False,
 False,
 'image.ico',
 None,
 False,
 False,
 '<?xml version="1.0" encoding="UTF-8" standalone="yes"?><assembly manifestVersion="1.0" xmlns="urn:schemas-microsoft-com:asm.v1"><assemblyIdentity name="MainMenu" processorArchitecture="x86" type="win32" version="1.0.0.0"/><dependency><dependentAssembly><assemblyIdentity language="*" name="Microsoft.Windows.Common-Controls" processorArchitecture="*" publicKeyToken="6595b64144ccf1df" type="win32" version="6.0.0.0"/><compatibility xmlns="urn:schemas-microsoft-com:compatibility.v1"/></dependentAssembly></dependency><compatibility xmlns="urn:schemas-microsoft-com:compatibility.v1"><application><supportedOS Id="{e2011457-1546-43c5-a5fe-008deee3d3f0}"/><supportedOS Id="{35138b9a-5d96-4fbd-8e2d-a2440225f93a}"/><supportedOS Id="{4a2f28e3-53b9-4441-ba9c-d69d4a4a6e38}"/><supportedOS Id="{1f676c76-80e1-4239-95bb-83d0f6d0da78}"/><supportedOS Id="{8e0f7a12-bfb3-4fe8-b9a5-48fd50a15a9a}"/></application></compatibility></assembly>',
 True,
 'MainMenu.pkg',
 [('PYZ-00.pyz',
   'D:\\PyCharm_WorkStation\\pygame\\plane\\build\\MainMenu\\PYZ-00.pyz',
   'PYZ'),
  ('struct', 'f:\\python\\python3.7.2\\lib\\struct.pyo', 'PYMODULE'),
  ('pyimod01_os_path',
   'f:\\python\\python3.7.2\\lib\\site-packages\\PyInstaller\\loader\\pyimod01_os_path.pyc',
   'PYMODULE'),
  ('pyimod02_archive',
   'f:\\python\\python3.7.2\\lib\\site-packages\\PyInstaller\\loader\\pyimod02_archive.pyc',
   'PYMODULE'),
  ('pyimod03_importers',
   'f:\\python\\python3.7.2\\lib\\site-packages\\PyInstaller\\loader\\pyimod03_importers.pyc',
   'PYMODULE'),
  ('pyiboot01_bootstrap',
   'f:\\python\\python3.7.2\\lib\\site-packages\\PyInstaller\\loader\\pyiboot01_bootstrap.py',
   'PYSOURCE'),
  ('pyi_rth_pkgres',
   'f:\\python\\python3.7.2\\lib\\site-packages\\PyInstaller\\loader\\rthooks\\pyi_rth_pkgres.py',
   'PYSOURCE'),
  ('pyi_rth_multiprocessing',
   'f:\\python\\python3.7.2\\lib\\site-packages\\PyInstaller\\loader\\rthooks\\pyi_rth_multiprocessing.py',
   'PYSOURCE'),
  ('MainMenu',
   'D:\\PyCharm_WorkStation\\pygame\\plane\\MainMenu.py',
   'PYSOURCE'),
  ('VCRUNTIME140.dll', 'f:\\python\\python3.7.2\\VCRUNTIME140.dll', 'BINARY'),
  ('api-ms-win-crt-heap-l1-1-0.dll',
   'C:\\WINDOWS\\system32\\api-ms-win-crt-heap-l1-1-0.dll',
   'BINARY'),
  ('api-ms-win-crt-math-l1-1-0.dll',
   'C:\\WINDOWS\\system32\\api-ms-win-crt-math-l1-1-0.dll',
   'BINARY'),
  ('api-ms-win-crt-stdio-l1-1-0.dll',
   'C:\\WINDOWS\\system32\\api-ms-win-crt-stdio-l1-1-0.dll',
   'BINARY'),
  ('api-ms-win-crt-locale-l1-1-0.dll',
   'C:\\WINDOWS\\system32\\api-ms-win-crt-locale-l1-1-0.dll',
   'BINARY'),
  ('api-ms-win-crt-runtime-l1-1-0.dll',
   'C:\\WINDOWS\\system32\\api-ms-win-crt-runtime-l1-1-0.dll',
   'BINARY'),
  ('python37.dll', 'f:\\python\\python3.7.2\\python37.dll', 'BINARY'),
  ('api-ms-win-crt-string-l1-1-0.dll',
   'C:\\WINDOWS\\system32\\api-ms-win-crt-string-l1-1-0.dll',
   'BINARY'),
  ('api-ms-win-crt-convert-l1-1-0.dll',
   'C:\\WINDOWS\\system32\\api-ms-win-crt-convert-l1-1-0.dll',
   'BINARY'),
  ('ucrtbase.dll', 'C:\\WINDOWS\\system32\\ucrtbase.dll', 'BINARY'),
  ('api-ms-win-crt-environment-l1-1-0.dll',
   'C:\\WINDOWS\\system32\\api-ms-win-crt-environment-l1-1-0.dll',
   'BINARY'),
  ('api-ms-win-crt-filesystem-l1-1-0.dll',
   'C:\\WINDOWS\\system32\\api-ms-win-crt-filesystem-l1-1-0.dll',
   'BINARY'),
  ('api-ms-win-crt-conio-l1-1-0.dll',
   'C:\\WINDOWS\\system32\\api-ms-win-crt-conio-l1-1-0.dll',
   'BINARY'),
  ('api-ms-win-crt-time-l1-1-0.dll',
   'C:\\WINDOWS\\system32\\api-ms-win-crt-time-l1-1-0.dll',
   'BINARY'),
  ('api-ms-win-crt-process-l1-1-0.dll',
   'C:\\WINDOWS\\system32\\api-ms-win-crt-process-l1-1-0.dll',
   'BINARY'),
  ('api-ms-win-core-handle-l1-1-0.dll',
   'C:\\WINDOWS\\system32\\api-ms-win-core-handle-l1-1-0.dll',
   'BINARY'),
  ('api-ms-win-core-file-l1-1-0.dll',
   'C:\\WINDOWS\\system32\\api-ms-win-core-file-l1-1-0.dll',
   'BINARY'),
  ('api-ms-win-core-console-l1-1-0.dll',
   'C:\\WINDOWS\\system32\\api-ms-win-core-console-l1-1-0.dll',
   'BINARY'),
  ('api-ms-win-core-file-l2-1-0.dll',
   'C:\\WINDOWS\\system32\\api-ms-win-core-file-l2-1-0.dll',
   'BINARY'),
  ('api-ms-win-core-file-l1-2-0.dll',
   'C:\\WINDOWS\\system32\\api-ms-win-core-file-l1-2-0.dll',
   'BINARY'),
  ('api-ms-win-core-timezone-l1-1-0.dll',
   'C:\\WINDOWS\\system32\\api-ms-win-core-timezone-l1-1-0.dll',
   'BINARY'),
  ('api-ms-win-core-interlocked-l1-1-0.dll',
   'C:\\WINDOWS\\system32\\api-ms-win-core-interlocked-l1-1-0.dll',
   'BINARY'),
  ('api-ms-win-core-synch-l1-1-0.dll',
   'C:\\WINDOWS\\system32\\api-ms-win-core-synch-l1-1-0.dll',
   'BINARY'),
  ('api-ms-win-core-synch-l1-2-0.dll',
   'C:\\WINDOWS\\system32\\api-ms-win-core-synch-l1-2-0.dll',
   'BINARY'),
  ('api-ms-win-core-localization-l1-2-0.dll',
   'C:\\WINDOWS\\system32\\api-ms-win-core-localization-l1-2-0.dll',
   'BINARY'),
  ('api-ms-win-core-processenvironment-l1-1-0.dll',
   'C:\\WINDOWS\\system32\\api-ms-win-core-processenvironment-l1-1-0.dll',
   'BINARY'),
  ('api-ms-win-core-rtlsupport-l1-1-0.dll',
   'C:\\WINDOWS\\system32\\api-ms-win-core-rtlsupport-l1-1-0.dll',
   'BINARY'),
  ('api-ms-win-core-libraryloader-l1-1-0.dll',
   'C:\\WINDOWS\\system32\\api-ms-win-core-libraryloader-l1-1-0.dll',
   'BINARY'),
  ('api-ms-win-core-debug-l1-1-0.dll',
   'C:\\WINDOWS\\system32\\api-ms-win-core-debug-l1-1-0.dll',
   'BINARY'),
  ('api-ms-win-core-util-l1-1-0.dll',
   'C:\\WINDOWS\\system32\\api-ms-win-core-util-l1-1-0.dll',
   'BINARY'),
  ('api-ms-win-core-processthreads-l1-1-0.dll',
   'C:\\WINDOWS\\system32\\api-ms-win-core-processthreads-l1-1-0.dll',
   'BINARY'),
  ('api-ms-win-core-profile-l1-1-0.dll',
   'C:\\WINDOWS\\system32\\api-ms-win-core-profile-l1-1-0.dll',
   'BINARY'),
  ('api-ms-win-core-processthreads-l1-1-1.dll',
   'C:\\WINDOWS\\system32\\api-ms-win-core-processthreads-l1-1-1.dll',
   'BINARY'),
  ('api-ms-win-core-memory-l1-1-0.dll',
   'C:\\WINDOWS\\system32\\api-ms-win-core-memory-l1-1-0.dll',
   'BINARY'),
  ('api-ms-win-core-heap-l1-1-0.dll',
   'C:\\WINDOWS\\system32\\api-ms-win-core-heap-l1-1-0.dll',
   'BINARY'),
  ('api-ms-win-core-sysinfo-l1-1-0.dll',
   'C:\\WINDOWS\\system32\\api-ms-win-core-sysinfo-l1-1-0.dll',
   'BINARY'),
  ('api-ms-win-core-namedpipe-l1-1-0.dll',
   'C:\\WINDOWS\\system32\\api-ms-win-core-namedpipe-l1-1-0.dll',
   'BINARY'),
  ('api-ms-win-core-errorhandling-l1-1-0.dll',
   'C:\\WINDOWS\\system32\\api-ms-win-core-errorhandling-l1-1-0.dll',
   'BINARY'),
  ('api-ms-win-core-datetime-l1-1-0.dll',
   'C:\\WINDOWS\\system32\\api-ms-win-core-datetime-l1-1-0.dll',
   'BINARY'),
  ('api-ms-win-core-string-l1-1-0.dll',
   'C:\\WINDOWS\\system32\\api-ms-win-core-string-l1-1-0.dll',
   'BINARY'),
  ('_contextvars',
   'f:\\python\\python3.7.2\\DLLs\\_contextvars.pyd',
   'EXTENSION'),
  ('_decimal', 'f:\\python\\python3.7.2\\DLLs\\_decimal.pyd', 'EXTENSION'),
  ('_ctypes', 'f:\\python\\python3.7.2\\DLLs\\_ctypes.pyd', 'EXTENSION'),
  ('_queue', 'f:\\python\\python3.7.2\\DLLs\\_queue.pyd', 'EXTENSION'),
  ('_multiprocessing',
   'f:\\python\\python3.7.2\\DLLs\\_multiprocessing.pyd',
   'EXTENSION'),
  ('_elementtree',
   'f:\\python\\python3.7.2\\DLLs\\_elementtree.pyd',
   'EXTENSION'),
  ('_ssl', 'f:\\python\\python3.7.2\\DLLs\\_ssl.pyd', 'EXTENSION'),
  ('unicodedata',
   'f:\\python\\python3.7.2\\DLLs\\unicodedata.pyd',
   'EXTENSION'),
  ('pyexpat', 'f:\\python\\python3.7.2\\DLLs\\pyexpat.pyd', 'EXTENSION'),
  ('_hashlib', 'f:\\python\\python3.7.2\\DLLs\\_hashlib.pyd', 'EXTENSION'),
  ('_bz2', 'f:\\python\\python3.7.2\\DLLs\\_bz2.pyd', 'EXTENSION'),
  ('_lzma', 'f:\\python\\python3.7.2\\DLLs\\_lzma.pyd', 'EXTENSION'),
  ('_socket', 'f:\\python\\python3.7.2\\DLLs\\_socket.pyd', 'EXTENSION'),
  ('select', 'f:\\python\\python3.7.2\\DLLs\\select.pyd', 'EXTENSION'),
  ('numpy.core._multiarray_tests',
   'f:\\python\\python3.7.2\\lib\\site-packages\\numpy\\core\\_multiarray_tests.cp37-win32.pyd',
   'EXTENSION'),
  ('numpy.core._multiarray_umath',
   'f:\\python\\python3.7.2\\lib\\site-packages\\numpy\\core\\_multiarray_umath.cp37-win32.pyd',
   'EXTENSION'),
  ('numpy.random.sfc64',
   'f:\\python\\python3.7.2\\lib\\site-packages\\numpy\\random\\sfc64.cp37-win32.pyd',
   'EXTENSION'),
  ('numpy.random.philox',
   'f:\\python\\python3.7.2\\lib\\site-packages\\numpy\\random\\philox.cp37-win32.pyd',
   'EXTENSION'),
  ('numpy.random.pcg64',
   'f:\\python\\python3.7.2\\lib\\site-packages\\numpy\\random\\pcg64.cp37-win32.pyd',
   'EXTENSION'),
  ('numpy.random.mt19937',
   'f:\\python\\python3.7.2\\lib\\site-packages\\numpy\\random\\mt19937.cp37-win32.pyd',
   'EXTENSION'),
  ('numpy.random.bit_generator',
   'f:\\python\\python3.7.2\\lib\\site-packages\\numpy\\random\\bit_generator.cp37-win32.pyd',
   'EXTENSION'),
  ('numpy.random.generator',
   'f:\\python\\python3.7.2\\lib\\site-packages\\numpy\\random\\generator.cp37-win32.pyd',
   'EXTENSION'),
  ('numpy.random.mtrand',
   'f:\\python\\python3.7.2\\lib\\site-packages\\numpy\\random\\mtrand.cp37-win32.pyd',
   'EXTENSION'),
  ('numpy.fft.pocketfft_internal',
   'f:\\python\\python3.7.2\\lib\\site-packages\\numpy\\fft\\pocketfft_internal.cp37-win32.pyd',
   'EXTENSION'),
  ('numpy.linalg._umath_linalg',
   'f:\\python\\python3.7.2\\lib\\site-packages\\numpy\\linalg\\_umath_linalg.cp37-win32.pyd',
   'EXTENSION'),
  ('numpy.linalg.lapack_lite',
   'f:\\python\\python3.7.2\\lib\\site-packages\\numpy\\linalg\\lapack_lite.cp37-win32.pyd',
   'EXTENSION'),
  ('pygame.imageext',
   'f:\\python\\python3.7.2\\lib\\site-packages\\pygame\\imageext.cp37-win32.pyd',
   'EXTENSION'),
  ('pygame.fastevent',
   'f:\\python\\python3.7.2\\lib\\site-packages\\pygame\\fastevent.cp37-win32.pyd',
   'EXTENSION'),
  ('pygame.scrap',
   'f:\\python\\python3.7.2\\lib\\site-packages\\pygame\\scrap.cp37-win32.pyd',
   'EXTENSION'),
  ('pygame.mixer',
   'f:\\python\\python3.7.2\\lib\\site-packages\\pygame\\mixer.cp37-win32.pyd',
   'EXTENSION'),
  ('pygame.mixer_music',
   'f:\\python\\python3.7.2\\lib\\site-packages\\pygame\\mixer_music.cp37-win32.pyd',
   'EXTENSION'),
  ('pygame.font',
   'f:\\python\\python3.7.2\\lib\\site-packages\\pygame\\font.cp37-win32.pyd',
   'EXTENSION'),
  ('pygame._freetype',
   'f:\\python\\python3.7.2\\lib\\site-packages\\pygame\\_freetype.cp37-win32.pyd',
   'EXTENSION'),
  ('pygame.transform',
   'f:\\python\\python3.7.2\\lib\\site-packages\\pygame\\transform.cp37-win32.pyd',
   'EXTENSION'),
  ('pygame.time',
   'f:\\python\\python3.7.2\\lib\\site-packages\\pygame\\time.cp37-win32.pyd',
   'EXTENSION'),
  ('pygame.overlay',
   'f:\\python\\python3.7.2\\lib\\site-packages\\pygame\\overlay.cp37-win32.pyd',
   'EXTENSION'),
  ('pygame.pixelarray',
   'f:\\python\\python3.7.2\\lib\\site-packages\\pygame\\pixelarray.cp37-win32.pyd',
   'EXTENSION'),
  ('pygame.mask',
   'f:\\python\\python3.7.2\\lib\\site-packages\\pygame\\mask.cp37-win32.pyd',
   'EXTENSION'),
  ('pygame.surface',
   'f:\\python\\python3.7.2\\lib\\site-packages\\pygame\\surface.cp37-win32.pyd',
   'EXTENSION'),
  ('pygame.pixelcopy',
   'f:\\python\\python3.7.2\\lib\\site-packages\\pygame\\pixelcopy.cp37-win32.pyd',
   'EXTENSION'),
  ('pygame.mouse',
   'f:\\python\\python3.7.2\\lib\\site-packages\\pygame\\mouse.cp37-win32.pyd',
   'EXTENSION'),
  ('pygame.key',
   'f:\\python\\python3.7.2\\lib\\site-packages\\pygame\\key.cp37-win32.pyd',
   'EXTENSION'),
  ('pygame.joystick',
   'f:\\python\\python3.7.2\\lib\\site-packages\\pygame\\joystick.cp37-win32.pyd',
   'EXTENSION'),
  ('pygame.image',
   'f:\\python\\python3.7.2\\lib\\site-packages\\pygame\\image.cp37-win32.pyd',
   'EXTENSION'),
  ('pygame.event',
   'f:\\python\\python3.7.2\\lib\\site-packages\\pygame\\event.cp37-win32.pyd',
   'EXTENSION'),
  ('pygame.draw',
   'f:\\python\\python3.7.2\\lib\\site-packages\\pygame\\draw.cp37-win32.pyd',
   'EXTENSION'),
  ('pygame.display',
   'f:\\python\\python3.7.2\\lib\\site-packages\\pygame\\display.cp37-win32.pyd',
   'EXTENSION'),
  ('pygame.cdrom',
   'f:\\python\\python3.7.2\\lib\\site-packages\\pygame\\cdrom.cp37-win32.pyd',
   'EXTENSION'),
  ('pygame.math',
   'f:\\python\\python3.7.2\\lib\\site-packages\\pygame\\math.cp37-win32.pyd',
   'EXTENSION'),
  ('pygame.bufferproxy',
   'f:\\python\\python3.7.2\\lib\\site-packages\\pygame\\bufferproxy.cp37-win32.pyd',
   'EXTENSION'),
  ('pygame.color',
   'f:\\python\\python3.7.2\\lib\\site-packages\\pygame\\color.cp37-win32.pyd',
   'EXTENSION'),
  ('pygame.surflock',
   'f:\\python\\python3.7.2\\lib\\site-packages\\pygame\\surflock.cp37-win32.pyd',
   'EXTENSION'),
  ('pygame.rwobject',
   'f:\\python\\python3.7.2\\lib\\site-packages\\pygame\\rwobject.cp37-win32.pyd',
   'EXTENSION'),
  ('pygame.rect',
   'f:\\python\\python3.7.2\\lib\\site-packages\\pygame\\rect.cp37-win32.pyd',
   'EXTENSION'),
  ('pygame.constants',
   'f:\\python\\python3.7.2\\lib\\site-packages\\pygame\\constants.cp37-win32.pyd',
   'EXTENSION'),
  ('pygame.base',
   'f:\\python\\python3.7.2\\lib\\site-packages\\pygame\\base.cp37-win32.pyd',
   'EXTENSION'),
  ('libcrypto-1_1.dll',
   'f:\\python\\python3.7.2\\DLLs\\libcrypto-1_1.dll',
   'BINARY'),
  ('libssl-1_1.dll', 'f:\\python\\python3.7.2\\DLLs\\libssl-1_1.dll', 'BINARY'),
  ('api-ms-win-crt-utility-l1-1-0.dll',
   'C:\\WINDOWS\\system32\\api-ms-win-crt-utility-l1-1-0.dll',
   'BINARY'),
  ('libopenblas.FN5FF57TWHUYLRG54LA6B33EZPHYZZL4.gfortran-win32.dll',
   'f:\\python\\python3.7.2\\lib\\site-packages\\numpy\\.libs\\libopenblas.fn5ff57twhuylrg54la6b33ezphyzzl4.gfortran-win32.dll',
   'BINARY'),
  ('libpng16-16.dll',
   'f:\\python\\python3.7.2\\lib\\site-packages\\pygame\\libpng16-16.dll',
   'BINARY'),
  ('SDL_image.dll',
   'f:\\python\\python3.7.2\\lib\\site-packages\\pygame\\SDL_image.dll',
   'BINARY'),
  ('SDL.dll',
   'f:\\python\\python3.7.2\\lib\\site-packages\\pygame\\SDL.dll',
   'BINARY'),
  ('libjpeg-8.dll',
   'f:\\python\\python3.7.2\\lib\\site-packages\\pygame\\libjpeg-8.dll',
   'BINARY'),
  ('SDL_mixer.dll',
   'f:\\python\\python3.7.2\\lib\\site-packages\\pygame\\SDL_mixer.dll',
   'BINARY'),
  ('SDL_ttf.dll',
   'f:\\python\\python3.7.2\\lib\\site-packages\\pygame\\SDL_ttf.dll',
   'BINARY'),
  ('libfreetype-6.dll',
   'f:\\python\\python3.7.2\\lib\\site-packages\\pygame\\libfreetype-6.dll',
   'BINARY'),
  ('zlib1.dll',
   'f:\\python\\python3.7.2\\lib\\site-packages\\pygame\\zlib1.dll',
   'BINARY'),
  ('libgcc_s_sjlj-1.dll',
   'f:\\python\\python3.7.2\\lib\\site-packages\\pygame\\libgcc_s_sjlj-1.dll',
   'BINARY'),
  ('libtiff-5.dll',
   'f:\\python\\python3.7.2\\lib\\site-packages\\pygame\\libtiff-5.dll',
   'BINARY'),
  ('libwebp-5.dll',
   'f:\\python\\python3.7.2\\lib\\site-packages\\pygame\\libwebp-5.dll',
   'BINARY'),
  ('libvorbisfile-3.dll',
   'f:\\python\\python3.7.2\\lib\\site-packages\\pygame\\libvorbisfile-3.dll',
   'BINARY'),
  ('libmpg123-0.dll',
   'f:\\python\\python3.7.2\\lib\\site-packages\\pygame\\libmpg123-0.dll',
   'BINARY'),
  ('libvorbis-0.dll',
   'f:\\python\\python3.7.2\\lib\\site-packages\\pygame\\libvorbis-0.dll',
   'BINARY'),
  ('libogg-0.dll',
   'f:\\python\\python3.7.2\\lib\\site-packages\\pygame\\libogg-0.dll',
   'BINARY'),
  ('base_library.zip',
   'D:\\PyCharm_WorkStation\\pygame\\plane\\build\\MainMenu\\base_library.zip',
   'DATA'),
  ('lib2to3\\Grammar.txt',
   'f:\\python\\python3.7.2\\lib\\lib2to3\\Grammar.txt',
   'DATA'),
  ('lib2to3\\tests\\data\\README',
   'f:\\python\\python3.7.2\\lib\\lib2to3\\tests\\data\\README',
   'DATA'),
  ('lib2to3\\PatternGrammar.txt',
   'f:\\python\\python3.7.2\\lib\\lib2to3\\PatternGrammar.txt',
   'DATA'),
  ('lib2to3\\PatternGrammar3.7.2.final.0.pickle',
   'f:\\python\\python3.7.2\\lib\\lib2to3\\PatternGrammar3.7.2.final.0.pickle',
   'DATA'),
  ('lib2to3\\Grammar3.7.2.final.0.pickle',
   'f:\\python\\python3.7.2\\lib\\lib2to3\\Grammar3.7.2.final.0.pickle',
   'DATA'),
  ('Include\\pyconfig.h',
   'f:\\python\\python3.7.2\\Include\\pyconfig.h',
   'DATA'),
  ('MainMenu.exe.manifest',
   'D:\\PyCharm_WorkStation\\pygame\\plane\\build\\MainMenu\\MainMenu.exe.manifest',
   'BINARY'),
  ('pyi-windows-manifest-filename MainMenu.exe.manifest', '', 'OPTION')],
 [],
 False,
 False,
 1574589197,
 [('runw.exe',
   'f:\\python\\python3.7.2\\lib\\site-packages\\PyInstaller\\bootloader\\Windows-32bit\\runw.exe',
   'EXECUTABLE')])
