('D:\\PyCharm_WorkStation\\pygame\\plane\\build\\MainMenu\\PYZ-00.pyz',
 [('multiprocessing.popen_fork',
   'f:\\python\\python3.7.2\\lib\\multiprocessing\\popen_fork.py',
   'PYMODULE'),
  ('multiprocessing.connection',
   'f:\\python\\python3.7.2\\lib\\multiprocessing\\connection.py',
   'PYMODULE'),
  ('multiprocessing.resource_sharer',
   'f:\\python\\python3.7.2\\lib\\multiprocessing\\resource_sharer.py',
   'PYMODULE'),
  ('multiprocessing.process',
   'f:\\python\\python3.7.2\\lib\\multiprocessing\\process.py',
   'PYMODULE'),
  ('xmlrpc.client',
   'f:\\python\\python3.7.2\\lib\\xmlrpc\\client.py',
   'PYMODULE'),
  ('xmlrpc', 'f:\\python\\python3.7.2\\lib\\xmlrpc\\__init__.py', 'PYMODULE'),
  ('decimal', 'f:\\python\\python3.7.2\\lib\\decimal.py', 'PYMODULE'),
  ('_pydecimal', 'f:\\python\\python3.7.2\\lib\\_pydecimal.py', 'PYMODULE'),
  ('contextvars', 'f:\\python\\python3.7.2\\lib\\contextvars.py', 'PYMODULE'),
  ('numbers', 'f:\\python\\python3.7.2\\lib\\numbers.py', 'PYMODULE'),
  ('hmac', 'f:\\python\\python3.7.2\\lib\\hmac.py', 'PYMODULE'),
  ('multiprocessing.context',
   'f:\\python\\python3.7.2\\lib\\multiprocessing\\context.py',
   'PYMODULE'),
  ('multiprocessing.popen_forkserver',
   'f:\\python\\python3.7.2\\lib\\multiprocessing\\popen_forkserver.py',
   'PYMODULE'),
  ('multiprocessing.popen_spawn_posix',
   'f:\\python\\python3.7.2\\lib\\multiprocessing\\popen_spawn_posix.py',
   'PYMODULE'),
  ('multiprocessing.semaphore_tracker',
   'f:\\python\\python3.7.2\\lib\\multiprocessing\\semaphore_tracker.py',
   'PYMODULE'),
  ('multiprocessing.forkserver',
   'f:\\python\\python3.7.2\\lib\\multiprocessing\\forkserver.py',
   'PYMODULE'),
  ('multiprocessing.sharedctypes',
   'f:\\python\\python3.7.2\\lib\\multiprocessing\\sharedctypes.py',
   'PYMODULE'),
  ('multiprocessing.heap',
   'f:\\python\\python3.7.2\\lib\\multiprocessing\\heap.py',
   'PYMODULE'),
  ('ctypes', 'f:\\python\\python3.7.2\\lib\\ctypes\\__init__.py', 'PYMODULE'),
  ('ctypes._endian',
   'f:\\python\\python3.7.2\\lib\\ctypes\\_endian.py',
   'PYMODULE'),
  ('multiprocessing.pool',
   'f:\\python\\python3.7.2\\lib\\multiprocessing\\pool.py',
   'PYMODULE'),
  ('multiprocessing.dummy',
   'f:\\python\\python3.7.2\\lib\\multiprocessing\\dummy\\__init__.py',
   'PYMODULE'),
  ('multiprocessing.dummy.connection',
   'f:\\python\\python3.7.2\\lib\\multiprocessing\\dummy\\connection.py',
   'PYMODULE'),
  ('queue', 'f:\\python\\python3.7.2\\lib\\queue.py', 'PYMODULE'),
  ('multiprocessing.queues',
   'f:\\python\\python3.7.2\\lib\\multiprocessing\\queues.py',
   'PYMODULE'),
  ('multiprocessing.synchronize',
   'f:\\python\\python3.7.2\\lib\\multiprocessing\\synchronize.py',
   'PYMODULE'),
  ('multiprocessing.managers',
   'f:\\python\\python3.7.2\\lib\\multiprocessing\\managers.py',
   'PYMODULE'),
  ('multiprocessing.reduction',
   'f:\\python\\python3.7.2\\lib\\multiprocessing\\reduction.py',
   'PYMODULE'),
  ('multiprocessing.util',
   'f:\\python\\python3.7.2\\lib\\multiprocessing\\util.py',
   'PYMODULE'),
  ('multiprocessing.popen_spawn_win32',
   'f:\\python\\python3.7.2\\lib\\multiprocessing\\popen_spawn_win32.py',
   'PYMODULE'),
  ('multiprocessing.spawn',
   'f:\\python\\python3.7.2\\lib\\multiprocessing\\spawn.py',
   'PYMODULE'),
  ('multiprocessing',
   'f:\\python\\python3.7.2\\lib\\multiprocessing\\__init__.py',
   'PYMODULE'),
  ('pkg_resources',
   'f:\\python\\python3.7.2\\lib\\site-packages\\pkg_resources\\__init__.py',
   'PYMODULE'),
  ('pkg_resources._vendor.appdirs',
   'f:\\python\\python3.7.2\\lib\\site-packages\\pkg_resources\\_vendor\\appdirs.py',
   'PYMODULE'),
  ('pkg_resources._vendor.six',
   'f:\\python\\python3.7.2\\lib\\site-packages\\pkg_resources\\_vendor\\six.py',
   'PYMODULE'),
  ('pkg_resources._vendor.packaging',
   'f:\\python\\python3.7.2\\lib\\site-packages\\pkg_resources\\_vendor\\packaging\\__init__.py',
   'PYMODULE'),
  ('pkg_resources._vendor.packaging.__about__',
   'f:\\python\\python3.7.2\\lib\\site-packages\\pkg_resources\\_vendor\\packaging\\__about__.py',
   'PYMODULE'),
  ('pkg_resources._vendor.pyparsing',
   'f:\\python\\python3.7.2\\lib\\site-packages\\pkg_resources\\_vendor\\pyparsing.py',
   'PYMODULE'),
  ('uuid', 'f:\\python\\python3.7.2\\lib\\uuid.py', 'PYMODULE'),
  ('ctypes.util', 'f:\\python\\python3.7.2\\lib\\ctypes\\util.py', 'PYMODULE'),
  ('ctypes._aix', 'f:\\python\\python3.7.2\\lib\\ctypes\\_aix.py', 'PYMODULE'),
  ('ctypes.macholib.dyld',
   'f:\\python\\python3.7.2\\lib\\ctypes\\macholib\\dyld.py',
   'PYMODULE'),
  ('ctypes.macholib',
   'f:\\python\\python3.7.2\\lib\\ctypes\\macholib\\__init__.py',
   'PYMODULE'),
  ('ctypes.macholib.dylib',
   'f:\\python\\python3.7.2\\lib\\ctypes\\macholib\\dylib.py',
   'PYMODULE'),
  ('ctypes.macholib.framework',
   'f:\\python\\python3.7.2\\lib\\ctypes\\macholib\\framework.py',
   'PYMODULE'),
  ('pkg_resources._vendor.packaging.version',
   'f:\\python\\python3.7.2\\lib\\site-packages\\pkg_resources\\_vendor\\packaging\\version.py',
   'PYMODULE'),
  ('pkg_resources._vendor',
   'f:\\python\\python3.7.2\\lib\\site-packages\\pkg_resources\\_vendor\\__init__.py',
   'PYMODULE'),
  ('pkg_resources._vendor.packaging._structures',
   'f:\\python\\python3.7.2\\lib\\site-packages\\pkg_resources\\_vendor\\packaging\\_structures.py',
   'PYMODULE'),
  ('pkg_resources._vendor.packaging._compat',
   'f:\\python\\python3.7.2\\lib\\site-packages\\pkg_resources\\_vendor\\packaging\\_compat.py',
   'PYMODULE'),
  ('pkg_resources._vendor.packaging.utils',
   'f:\\python\\python3.7.2\\lib\\site-packages\\pkg_resources\\_vendor\\packaging\\utils.py',
   'PYMODULE'),
  ('pkg_resources._vendor.packaging.specifiers',
   'f:\\python\\python3.7.2\\lib\\site-packages\\pkg_resources\\_vendor\\packaging\\specifiers.py',
   'PYMODULE'),
  ('pkg_resources._vendor.packaging.requirements',
   'f:\\python\\python3.7.2\\lib\\site-packages\\pkg_resources\\_vendor\\packaging\\requirements.py',
   'PYMODULE'),
  ('pkg_resources._vendor.packaging.markers',
   'f:\\python\\python3.7.2\\lib\\site-packages\\pkg_resources\\_vendor\\packaging\\markers.py',
   'PYMODULE'),
  ('__main__',
   'F:\\Python\\Python3.7.2\\Scripts\\pyinstaller.exe\\__main__.py',
   'PYMODULE'),
  ('PyInstaller.__main__',
   'f:\\python\\python3.7.2\\lib\\site-packages\\PyInstaller\\__main__.py',
   'PYMODULE'),
  ('PyInstaller.building.build_main',
   'f:\\python\\python3.7.2\\lib\\site-packages\\PyInstaller\\building\\build_main.py',
   'PYMODULE'),
  ('PyInstaller.building',
   'f:\\python\\python3.7.2\\lib\\site-packages\\PyInstaller\\building\\__init__.py',
   'PYMODULE'),
  ('PyInstaller.config',
   'f:\\python\\python3.7.2\\lib\\site-packages\\PyInstaller\\config.py',
   'PYMODULE'),
  ('PyInstaller.utils.win32.winmanifest',
   'f:\\python\\python3.7.2\\lib\\site-packages\\PyInstaller\\utils\\win32\\winmanifest.py',
   'PYMODULE'),
  ('PyInstaller.utils.win32.winresource',
   'f:\\python\\python3.7.2\\lib\\site-packages\\PyInstaller\\utils\\win32\\winresource.py',
   'PYMODULE'),
  ('xml.dom.minidom',
   'f:\\python\\python3.7.2\\lib\\xml\\dom\\minidom.py',
   'PYMODULE'),
  ('xml.dom.pulldom',
   'f:\\python\\python3.7.2\\lib\\xml\\dom\\pulldom.py',
   'PYMODULE'),
  ('xml.sax.handler',
   'f:\\python\\python3.7.2\\lib\\xml\\sax\\handler.py',
   'PYMODULE'),
  ('xml.sax',
   'f:\\python\\python3.7.2\\lib\\xml\\sax\\__init__.py',
   'PYMODULE'),
  ('xml.sax.expatreader',
   'f:\\python\\python3.7.2\\lib\\xml\\sax\\expatreader.py',
   'PYMODULE'),
  ('xml.sax._exceptions',
   'f:\\python\\python3.7.2\\lib\\xml\\sax\\_exceptions.py',
   'PYMODULE'),
  ('xml.sax.saxutils',
   'f:\\python\\python3.7.2\\lib\\xml\\sax\\saxutils.py',
   'PYMODULE'),
  ('urllib.request',
   'f:\\python\\python3.7.2\\lib\\urllib\\request.py',
   'PYMODULE'),
  ('getpass', 'f:\\python\\python3.7.2\\lib\\getpass.py', 'PYMODULE'),
  ('nturl2path', 'f:\\python\\python3.7.2\\lib\\nturl2path.py', 'PYMODULE'),
  ('ftplib', 'f:\\python\\python3.7.2\\lib\\ftplib.py', 'PYMODULE'),
  ('netrc', 'f:\\python\\python3.7.2\\lib\\netrc.py', 'PYMODULE'),
  ('http.cookiejar',
   'f:\\python\\python3.7.2\\lib\\http\\cookiejar.py',
   'PYMODULE'),
  ('urllib.response',
   'f:\\python\\python3.7.2\\lib\\urllib\\response.py',
   'PYMODULE'),
  ('urllib.error',
   'f:\\python\\python3.7.2\\lib\\urllib\\error.py',
   'PYMODULE'),
  ('xml.sax.xmlreader',
   'f:\\python\\python3.7.2\\lib\\xml\\sax\\xmlreader.py',
   'PYMODULE'),
  ('xml.dom.expatbuilder',
   'f:\\python\\python3.7.2\\lib\\xml\\dom\\expatbuilder.py',
   'PYMODULE'),
  ('xml.dom.NodeFilter',
   'f:\\python\\python3.7.2\\lib\\xml\\dom\\NodeFilter.py',
   'PYMODULE'),
  ('xml.dom.xmlbuilder',
   'f:\\python\\python3.7.2\\lib\\xml\\dom\\xmlbuilder.py',
   'PYMODULE'),
  ('xml.dom.minicompat',
   'f:\\python\\python3.7.2\\lib\\xml\\dom\\minicompat.py',
   'PYMODULE'),
  ('xml.dom.domreg',
   'f:\\python\\python3.7.2\\lib\\xml\\dom\\domreg.py',
   'PYMODULE'),
  ('xml.dom',
   'f:\\python\\python3.7.2\\lib\\xml\\dom\\__init__.py',
   'PYMODULE'),
  ('PyInstaller.utils.win32',
   'f:\\python\\python3.7.2\\lib\\site-packages\\PyInstaller\\utils\\win32\\__init__.py',
   'PYMODULE'),
  ('PyInstaller.utils.win32.versioninfo',
   'f:\\python\\python3.7.2\\lib\\site-packages\\PyInstaller\\utils\\win32\\versioninfo.py',
   'PYMODULE'),
  ('pefile',
   'f:\\python\\python3.7.2\\lib\\site-packages\\pefile.py',
   'PYMODULE'),
  ('ordlookup',
   'f:\\python\\python3.7.2\\lib\\site-packages\\ordlookup\\__init__.py',
   'PYMODULE'),
  ('ordlookup.oleaut32',
   'f:\\python\\python3.7.2\\lib\\site-packages\\ordlookup\\oleaut32.py',
   'PYMODULE'),
  ('ordlookup.ws2_32',
   'f:\\python\\python3.7.2\\lib\\site-packages\\ordlookup\\ws2_32.py',
   'PYMODULE'),
  ('PyInstaller.utils.win32.icon',
   'f:\\python\\python3.7.2\\lib\\site-packages\\PyInstaller\\utils\\win32\\icon.py',
   'PYMODULE'),
  ('PyInstaller.utils.win32.winutils',
   'f:\\python\\python3.7.2\\lib\\site-packages\\PyInstaller\\utils\\win32\\winutils.py',
   'PYMODULE'),
  ('site',
   'f:\\python\\python3.7.2\\lib\\site-packages\\PyInstaller\\fake-modules\\site.py',
   'PYMODULE'),
  ('PyInstaller.utils',
   'f:\\python\\python3.7.2\\lib\\site-packages\\PyInstaller\\utils\\__init__.py',
   'PYMODULE'),
  ('PyInstaller.configure',
   'f:\\python\\python3.7.2\\lib\\site-packages\\PyInstaller\\configure.py',
   'PYMODULE'),
  ('PyInstaller.archive.pyz_crypto',
   'f:\\python\\python3.7.2\\lib\\site-packages\\PyInstaller\\archive\\pyz_crypto.py',
   'PYMODULE'),
  ('PyInstaller.archive',
   'f:\\python\\python3.7.2\\lib\\site-packages\\PyInstaller\\archive\\__init__.py',
   'PYMODULE'),
  ('PyInstaller.depend.utils',
   'f:\\python\\python3.7.2\\lib\\site-packages\\PyInstaller\\depend\\utils.py',
   'PYMODULE'),
  ('distutils.spawn',
   'f:\\python\\python3.7.2\\lib\\distutils\\spawn.py',
   'PYMODULE'),
  ('distutils.sysconfig',
   'f:\\python\\python3.7.2\\lib\\distutils\\sysconfig.py',
   'PYMODULE'),
  ('distutils.text_file',
   'f:\\python\\python3.7.2\\lib\\distutils\\text_file.py',
   'PYMODULE'),
  ('_osx_support', 'f:\\python\\python3.7.2\\lib\\_osx_support.py', 'PYMODULE'),
  ('distutils.log',
   'f:\\python\\python3.7.2\\lib\\distutils\\log.py',
   'PYMODULE'),
  ('distutils',
   'f:\\python\\python3.7.2\\lib\\distutils\\__init__.py',
   'PYMODULE'),
  ('distutils.archive_util',
   'f:\\python\\python3.7.2\\lib\\distutils\\archive_util.py',
   'PYMODULE'),
  ('distutils.dir_util',
   'f:\\python\\python3.7.2\\lib\\distutils\\dir_util.py',
   'PYMODULE'),
  ('distutils.file_util',
   'f:\\python\\python3.7.2\\lib\\distutils\\file_util.py',
   'PYMODULE'),
  ('distutils.dep_util',
   'f:\\python\\python3.7.2\\lib\\distutils\\dep_util.py',
   'PYMODULE'),
  ('distutils.ccompiler',
   'f:\\python\\python3.7.2\\lib\\distutils\\ccompiler.py',
   'PYMODULE'),
  ('distutils.fancy_getopt',
   'f:\\python\\python3.7.2\\lib\\distutils\\fancy_getopt.py',
   'PYMODULE'),
  ('distutils.util',
   'f:\\python\\python3.7.2\\lib\\distutils\\util.py',
   'PYMODULE'),
  ('distutils.filelist',
   'f:\\python\\python3.7.2\\lib\\distutils\\filelist.py',
   'PYMODULE'),
  ('lib2to3.refactor',
   'f:\\python\\python3.7.2\\lib\\lib2to3\\refactor.py',
   'PYMODULE'),
  ('lib2to3.btm_matcher',
   'f:\\python\\python3.7.2\\lib\\lib2to3\\btm_matcher.py',
   'PYMODULE'),
  ('lib2to3.btm_utils',
   'f:\\python\\python3.7.2\\lib\\lib2to3\\btm_utils.py',
   'PYMODULE'),
  ('lib2to3.pgen2.grammar',
   'f:\\python\\python3.7.2\\lib\\lib2to3\\pgen2\\grammar.py',
   'PYMODULE'),
  ('lib2to3.pygram',
   'f:\\python\\python3.7.2\\lib\\lib2to3\\pygram.py',
   'PYMODULE'),
  ('lib2to3.pytree',
   'f:\\python\\python3.7.2\\lib\\lib2to3\\pytree.py',
   'PYMODULE'),
  ('lib2to3', 'f:\\python\\python3.7.2\\lib\\lib2to3\\__init__.py', 'PYMODULE'),
  ('lib2to3.patcomp',
   'f:\\python\\python3.7.2\\lib\\lib2to3\\patcomp.py',
   'PYMODULE'),
  ('lib2to3.pgen2.parse',
   'f:\\python\\python3.7.2\\lib\\lib2to3\\pgen2\\parse.py',
   'PYMODULE'),
  ('lib2to3.pgen2.literals',
   'f:\\python\\python3.7.2\\lib\\lib2to3\\pgen2\\literals.py',
   'PYMODULE'),
  ('lib2to3.fixer_util',
   'f:\\python\\python3.7.2\\lib\\lib2to3\\fixer_util.py',
   'PYMODULE'),
  ('lib2to3.pgen2.token',
   'f:\\python\\python3.7.2\\lib\\lib2to3\\pgen2\\token.py',
   'PYMODULE'),
  ('lib2to3.pgen2.tokenize',
   'f:\\python\\python3.7.2\\lib\\lib2to3\\pgen2\\tokenize.py',
   'PYMODULE'),
  ('lib2to3.pgen2.driver',
   'f:\\python\\python3.7.2\\lib\\lib2to3\\pgen2\\driver.py',
   'PYMODULE'),
  ('lib2to3.pgen2.pgen',
   'f:\\python\\python3.7.2\\lib\\lib2to3\\pgen2\\pgen.py',
   'PYMODULE'),
  ('lib2to3.pgen2',
   'f:\\python\\python3.7.2\\lib\\lib2to3\\pgen2\\__init__.py',
   'PYMODULE'),
  ('distutils.debug',
   'f:\\python\\python3.7.2\\lib\\distutils\\debug.py',
   'PYMODULE'),
  ('distutils.errors',
   'f:\\python\\python3.7.2\\lib\\distutils\\errors.py',
   'PYMODULE'),
  ('PyInstaller.depend.dylib',
   'f:\\python\\python3.7.2\\lib\\site-packages\\PyInstaller\\depend\\dylib.py',
   'PYMODULE'),
  ('PyInstaller.lib.modulegraph.modulegraph',
   'f:\\python\\python3.7.2\\lib\\site-packages\\PyInstaller\\lib\\modulegraph\\modulegraph.py',
   'PYMODULE'),
  ('PyInstaller.lib.modulegraph._compat',
   'f:\\python\\python3.7.2\\lib\\site-packages\\PyInstaller\\lib\\modulegraph\\_compat.py',
   'PYMODULE'),
  ('PyInstaller.lib.modulegraph.zipio',
   'f:\\python\\python3.7.2\\lib\\site-packages\\PyInstaller\\lib\\modulegraph\\zipio.py',
   'PYMODULE'),
  ('altgraph',
   'f:\\python\\python3.7.2\\lib\\site-packages\\altgraph\\__init__.py',
   'PYMODULE'),
  ('altgraph.ObjectGraph',
   'f:\\python\\python3.7.2\\lib\\site-packages\\altgraph\\ObjectGraph.py',
   'PYMODULE'),
  ('altgraph.GraphUtil',
   'f:\\python\\python3.7.2\\lib\\site-packages\\altgraph\\GraphUtil.py',
   'PYMODULE'),
  ('altgraph.Graph',
   'f:\\python\\python3.7.2\\lib\\site-packages\\altgraph\\Graph.py',
   'PYMODULE'),
  ('PyInstaller.lib.modulegraph.util',
   'f:\\python\\python3.7.2\\lib\\site-packages\\PyInstaller\\lib\\modulegraph\\util.py',
   'PYMODULE'),
  ('PyInstaller.lib.modulegraph',
   'f:\\python\\python3.7.2\\lib\\site-packages\\PyInstaller\\lib\\modulegraph\\__init__.py',
   'PYMODULE'),
  ('PyInstaller.lib',
   'f:\\python\\python3.7.2\\lib\\site-packages\\PyInstaller\\lib\\__init__.py',
   'PYMODULE'),
  ('PyInstaller.building.utils',
   'f:\\python\\python3.7.2\\lib\\site-packages\\PyInstaller\\building\\utils.py',
   'PYMODULE'),
  ('PyInstaller.building.toc_conversion',
   'f:\\python\\python3.7.2\\lib\\site-packages\\PyInstaller\\building\\toc_conversion.py',
   'PYMODULE'),
  ('PyInstaller.building.osx',
   'f:\\python\\python3.7.2\\lib\\site-packages\\PyInstaller\\building\\osx.py',
   'PYMODULE'),
  ('PyInstaller.building.imphook',
   'f:\\python\\python3.7.2\\lib\\site-packages\\PyInstaller\\building\\imphook.py',
   'PYMODULE'),
  ('PyInstaller.building.imphookapi',
   'f:\\python\\python3.7.2\\lib\\site-packages\\PyInstaller\\building\\imphookapi.py',
   'PYMODULE'),
  ('PyInstaller.building.datastruct',
   'f:\\python\\python3.7.2\\lib\\site-packages\\PyInstaller\\building\\datastruct.py',
   'PYMODULE'),
  ('PyInstaller.building.api',
   'f:\\python\\python3.7.2\\lib\\site-packages\\PyInstaller\\building\\api.py',
   'PYMODULE'),
  ('PyInstaller.utils.osx',
   'f:\\python\\python3.7.2\\lib\\site-packages\\PyInstaller\\utils\\osx.py',
   'PYMODULE'),
  ('PyInstaller.archive.writers',
   'f:\\python\\python3.7.2\\lib\\site-packages\\PyInstaller\\archive\\writers.py',
   'PYMODULE'),
  ('PyInstaller.loader.pyimod02_archive',
   'f:\\python\\python3.7.2\\lib\\site-packages\\PyInstaller\\loader\\pyimod02_archive.py',
   'PYMODULE'),
  ('PyInstaller.loader',
   'f:\\python\\python3.7.2\\lib\\site-packages\\PyInstaller\\loader\\__init__.py',
   'PYMODULE'),
  ('PyInstaller.depend.analysis',
   'f:\\python\\python3.7.2\\lib\\site-packages\\PyInstaller\\depend\\analysis.py',
   'PYMODULE'),
  ('PyInstaller.utils.hooks',
   'f:\\python\\python3.7.2\\lib\\site-packages\\PyInstaller\\utils\\hooks\\__init__.py',
   'PYMODULE'),
  ('PyInstaller.utils.hooks.win32',
   'f:\\python\\python3.7.2\\lib\\site-packages\\PyInstaller\\utils\\hooks\\win32.py',
   'PYMODULE'),
  ('PyInstaller.utils.hooks.qt',
   'f:\\python\\python3.7.2\\lib\\site-packages\\PyInstaller\\utils\\hooks\\qt.py',
   'PYMODULE'),
  ('json', 'f:\\python\\python3.7.2\\lib\\json\\__init__.py', 'PYMODULE'),
  ('json.encoder',
   'f:\\python\\python3.7.2\\lib\\json\\encoder.py',
   'PYMODULE'),
  ('json.decoder',
   'f:\\python\\python3.7.2\\lib\\json\\decoder.py',
   'PYMODULE'),
  ('json.scanner',
   'f:\\python\\python3.7.2\\lib\\json\\scanner.py',
   'PYMODULE'),
  ('PyInstaller.utils.hooks.gi',
   'f:\\python\\python3.7.2\\lib\\site-packages\\PyInstaller\\utils\\hooks\\gi.py',
   'PYMODULE'),
  ('PyInstaller.utils.hooks.django',
   'f:\\python\\python3.7.2\\lib\\site-packages\\PyInstaller\\utils\\hooks\\django.py',
   'PYMODULE'),
  ('PyInstaller.exceptions',
   'f:\\python\\python3.7.2\\lib\\site-packages\\PyInstaller\\exceptions.py',
   'PYMODULE'),
  ('PyInstaller.lib.modulegraph.find_modules',
   'f:\\python\\python3.7.2\\lib\\site-packages\\PyInstaller\\lib\\modulegraph\\find_modules.py',
   'PYMODULE'),
  ('xml.etree',
   'f:\\python\\python3.7.2\\lib\\xml\\etree\\__init__.py',
   'PYMODULE'),
  ('xml.etree.ElementTree',
   'f:\\python\\python3.7.2\\lib\\xml\\etree\\ElementTree.py',
   'PYMODULE'),
  ('xml.etree.cElementTree',
   'f:\\python\\python3.7.2\\lib\\xml\\etree\\cElementTree.py',
   'PYMODULE'),
  ('xml.etree.ElementInclude',
   'f:\\python\\python3.7.2\\lib\\xml\\etree\\ElementInclude.py',
   'PYMODULE'),
  ('xml.etree.ElementPath',
   'f:\\python\\python3.7.2\\lib\\xml\\etree\\ElementPath.py',
   'PYMODULE'),
  ('PyInstaller.depend.bindepend',
   'f:\\python\\python3.7.2\\lib\\site-packages\\PyInstaller\\depend\\bindepend.py',
   'PYMODULE'),
  ('PyInstaller.depend',
   'f:\\python\\python3.7.2\\lib\\site-packages\\PyInstaller\\depend\\__init__.py',
   'PYMODULE'),
  ('PyInstaller.utils.misc',
   'f:\\python\\python3.7.2\\lib\\site-packages\\PyInstaller\\utils\\misc.py',
   'PYMODULE'),
  ('PyInstaller.building.makespec',
   'f:\\python\\python3.7.2\\lib\\site-packages\\PyInstaller\\building\\makespec.py',
   'PYMODULE'),
  ('PyInstaller.building.templates',
   'f:\\python\\python3.7.2\\lib\\site-packages\\PyInstaller\\building\\templates.py',
   'PYMODULE'),
  ('distutils.version',
   'f:\\python\\python3.7.2\\lib\\distutils\\version.py',
   'PYMODULE'),
  ('PyInstaller.compat',
   'f:\\python\\python3.7.2\\lib\\site-packages\\PyInstaller\\compat.py',
   'PYMODULE'),
  ('win32ctypes.pywin32.win32api',
   'f:\\python\\python3.7.2\\lib\\site-packages\\win32ctypes\\pywin32\\win32api.py',
   'PYMODULE'),
  ('win32ctypes.core',
   'f:\\python\\python3.7.2\\lib\\site-packages\\win32ctypes\\core\\__init__.py',
   'PYMODULE'),
  ('win32ctypes',
   'f:\\python\\python3.7.2\\lib\\site-packages\\win32ctypes\\__init__.py',
   'PYMODULE'),
  ('win32ctypes.version',
   'f:\\python\\python3.7.2\\lib\\site-packages\\win32ctypes\\version.py',
   'PYMODULE'),
  ('win32ctypes.core._winerrors',
   'f:\\python\\python3.7.2\\lib\\site-packages\\win32ctypes\\core\\_winerrors.py',
   'PYMODULE'),
  ('win32ctypes.pywin32.pywintypes',
   'f:\\python\\python3.7.2\\lib\\site-packages\\win32ctypes\\pywin32\\pywintypes.py',
   'PYMODULE'),
  ('win32ctypes.pywin32',
   'f:\\python\\python3.7.2\\lib\\site-packages\\win32ctypes\\pywin32\\__init__.py',
   'PYMODULE'),
  ('win32ctypes.pywin32.win32cred',
   'f:\\python\\python3.7.2\\lib\\site-packages\\win32ctypes\\pywin32\\win32cred.py',
   'PYMODULE'),
  ('PyInstaller.log',
   'f:\\python\\python3.7.2\\lib\\site-packages\\PyInstaller\\log.py',
   'PYMODULE'),
  ('PyInstaller',
   'f:\\python\\python3.7.2\\lib\\site-packages\\PyInstaller\\__init__.py',
   'PYMODULE'),
  ('PyInstaller.utils.git',
   'f:\\python\\python3.7.2\\lib\\site-packages\\PyInstaller\\utils\\git.py',
   'PYMODULE'),
  ('PyInstaller.utils._gitrevision',
   'f:\\python\\python3.7.2\\lib\\site-packages\\PyInstaller\\utils\\_gitrevision.py',
   'PYMODULE'),
  ('sysconfig', 'f:\\python\\python3.7.2\\lib\\sysconfig.py', 'PYMODULE'),
  ('pkg_resources.py31compat',
   'f:\\python\\python3.7.2\\lib\\site-packages\\pkg_resources\\py31compat.py',
   'PYMODULE'),
  ('pkg_resources.extern',
   'f:\\python\\python3.7.2\\lib\\site-packages\\pkg_resources\\extern\\__init__.py',
   'PYMODULE'),
  ('imp', 'f:\\python\\python3.7.2\\lib\\imp.py', 'PYMODULE'),
  ('ntpath', 'f:\\python\\python3.7.2\\lib\\ntpath.py', 'PYMODULE'),
  ('_strptime', 'f:\\python\\python3.7.2\\lib\\_strptime.py', 'PYMODULE'),
  ('datetime', 'f:\\python\\python3.7.2\\lib\\datetime.py', 'PYMODULE'),
  ('stringprep', 'f:\\python\\python3.7.2\\lib\\stringprep.py', 'PYMODULE'),
  ('fnmatch', 'f:\\python\\python3.7.2\\lib\\fnmatch.py', 'PYMODULE'),
  ('struct', 'f:\\python\\python3.7.2\\lib\\struct.py', 'PYMODULE'),
  ('_compat_pickle',
   'f:\\python\\python3.7.2\\lib\\_compat_pickle.py',
   'PYMODULE'),
  ('__future__', 'f:\\python\\python3.7.2\\lib\\__future__.py', 'PYMODULE'),
  ('difflib', 'f:\\python\\python3.7.2\\lib\\difflib.py', 'PYMODULE'),
  ('ast', 'f:\\python\\python3.7.2\\lib\\ast.py', 'PYMODULE'),
  ('inspect', 'f:\\python\\python3.7.2\\lib\\inspect.py', 'PYMODULE'),
  ('cmd', 'f:\\python\\python3.7.2\\lib\\cmd.py', 'PYMODULE'),
  ('bdb', 'f:\\python\\python3.7.2\\lib\\bdb.py', 'PYMODULE'),
  ('opcode', 'f:\\python\\python3.7.2\\lib\\opcode.py', 'PYMODULE'),
  ('dis', 'f:\\python\\python3.7.2\\lib\\dis.py', 'PYMODULE'),
  ('codeop', 'f:\\python\\python3.7.2\\lib\\codeop.py', 'PYMODULE'),
  ('code', 'f:\\python\\python3.7.2\\lib\\code.py', 'PYMODULE'),
  ('glob', 'f:\\python\\python3.7.2\\lib\\glob.py', 'PYMODULE'),
  ('shlex', 'f:\\python\\python3.7.2\\lib\\shlex.py', 'PYMODULE'),
  ('runpy', 'f:\\python\\python3.7.2\\lib\\runpy.py', 'PYMODULE'),
  ('importlib._bootstrap',
   'f:\\python\\python3.7.2\\lib\\importlib\\_bootstrap.py',
   'PYMODULE'),
  ('importlib._bootstrap_external',
   'f:\\python\\python3.7.2\\lib\\importlib\\_bootstrap_external.py',
   'PYMODULE'),
  ('importlib.machinery',
   'f:\\python\\python3.7.2\\lib\\importlib\\machinery.py',
   'PYMODULE'),
  ('importlib.util',
   'f:\\python\\python3.7.2\\lib\\importlib\\util.py',
   'PYMODULE'),
  ('importlib.abc',
   'f:\\python\\python3.7.2\\lib\\importlib\\abc.py',
   'PYMODULE'),
  ('importlib',
   'f:\\python\\python3.7.2\\lib\\importlib\\__init__.py',
   'PYMODULE'),
  ('pkgutil', 'f:\\python\\python3.7.2\\lib\\pkgutil.py', 'PYMODULE'),
  ('xml', 'f:\\python\\python3.7.2\\lib\\xml\\__init__.py', 'PYMODULE'),
  ('xml.parsers',
   'f:\\python\\python3.7.2\\lib\\xml\\parsers\\__init__.py',
   'PYMODULE'),
  ('xml.parsers.expat',
   'f:\\python\\python3.7.2\\lib\\xml\\parsers\\expat.py',
   'PYMODULE'),
  ('plistlib', 'f:\\python\\python3.7.2\\lib\\plistlib.py', 'PYMODULE'),
  ('platform', 'f:\\python\\python3.7.2\\lib\\platform.py', 'PYMODULE'),
  ('token', 'f:\\python\\python3.7.2\\lib\\token.py', 'PYMODULE'),
  ('tokenize', 'f:\\python\\python3.7.2\\lib\\tokenize.py', 'PYMODULE'),
  ('urllib.parse',
   'f:\\python\\python3.7.2\\lib\\urllib\\parse.py',
   'PYMODULE'),
  ('tempfile', 'f:\\python\\python3.7.2\\lib\\tempfile.py', 'PYMODULE'),
  ('tty', 'f:\\python\\python3.7.2\\lib\\tty.py', 'PYMODULE'),
  ('pydoc_data',
   'f:\\python\\python3.7.2\\lib\\pydoc_data\\__init__.py',
   'PYMODULE'),
  ('pydoc_data.topics',
   'f:\\python\\python3.7.2\\lib\\pydoc_data\\topics.py',
   'PYMODULE'),
  ('html.entities',
   'f:\\python\\python3.7.2\\lib\\html\\entities.py',
   'PYMODULE'),
  ('html', 'f:\\python\\python3.7.2\\lib\\html\\__init__.py', 'PYMODULE'),
  ('ssl', 'f:\\python\\python3.7.2\\lib\\ssl.py', 'PYMODULE'),
  ('http.client', 'f:\\python\\python3.7.2\\lib\\http\\client.py', 'PYMODULE'),
  ('mimetypes', 'f:\\python\\python3.7.2\\lib\\mimetypes.py', 'PYMODULE'),
  ('socketserver', 'f:\\python\\python3.7.2\\lib\\socketserver.py', 'PYMODULE'),
  ('http', 'f:\\python\\python3.7.2\\lib\\http\\__init__.py', 'PYMODULE'),
  ('http.server', 'f:\\python\\python3.7.2\\lib\\http\\server.py', 'PYMODULE'),
  ('optparse', 'f:\\python\\python3.7.2\\lib\\optparse.py', 'PYMODULE'),
  ('uu', 'f:\\python\\python3.7.2\\lib\\uu.py', 'PYMODULE'),
  ('quopri', 'f:\\python\\python3.7.2\\lib\\quopri.py', 'PYMODULE'),
  ('email.feedparser',
   'f:\\python\\python3.7.2\\lib\\email\\feedparser.py',
   'PYMODULE'),
  ('email.parser',
   'f:\\python\\python3.7.2\\lib\\email\\parser.py',
   'PYMODULE'),
  ('email', 'f:\\python\\python3.7.2\\lib\\email\\__init__.py', 'PYMODULE'),
  ('calendar', 'f:\\python\\python3.7.2\\lib\\calendar.py', 'PYMODULE'),
  ('email._parseaddr',
   'f:\\python\\python3.7.2\\lib\\email\\_parseaddr.py',
   'PYMODULE'),
  ('email.utils', 'f:\\python\\python3.7.2\\lib\\email\\utils.py', 'PYMODULE'),
  ('email.errors',
   'f:\\python\\python3.7.2\\lib\\email\\errors.py',
   'PYMODULE'),
  ('email.header',
   'f:\\python\\python3.7.2\\lib\\email\\header.py',
   'PYMODULE'),
  ('email._policybase',
   'f:\\python\\python3.7.2\\lib\\email\\_policybase.py',
   'PYMODULE'),
  ('email.base64mime',
   'f:\\python\\python3.7.2\\lib\\email\\base64mime.py',
   'PYMODULE'),
  ('email.encoders',
   'f:\\python\\python3.7.2\\lib\\email\\encoders.py',
   'PYMODULE'),
  ('email.charset',
   'f:\\python\\python3.7.2\\lib\\email\\charset.py',
   'PYMODULE'),
  ('base64', 'f:\\python\\python3.7.2\\lib\\base64.py', 'PYMODULE'),
  ('email._encoded_words',
   'f:\\python\\python3.7.2\\lib\\email\\_encoded_words.py',
   'PYMODULE'),
  ('hashlib', 'f:\\python\\python3.7.2\\lib\\hashlib.py', 'PYMODULE'),
  ('bisect', 'f:\\python\\python3.7.2\\lib\\bisect.py', 'PYMODULE'),
  ('random', 'f:\\python\\python3.7.2\\lib\\random.py', 'PYMODULE'),
  ('email.generator',
   'f:\\python\\python3.7.2\\lib\\email\\generator.py',
   'PYMODULE'),
  ('email.iterators',
   'f:\\python\\python3.7.2\\lib\\email\\iterators.py',
   'PYMODULE'),
  ('urllib', 'f:\\python\\python3.7.2\\lib\\urllib\\__init__.py', 'PYMODULE'),
  ('email._header_value_parser',
   'f:\\python\\python3.7.2\\lib\\email\\_header_value_parser.py',
   'PYMODULE'),
  ('email.headerregistry',
   'f:\\python\\python3.7.2\\lib\\email\\headerregistry.py',
   'PYMODULE'),
  ('email.quoprimime',
   'f:\\python\\python3.7.2\\lib\\email\\quoprimime.py',
   'PYMODULE'),
  ('email.contentmanager',
   'f:\\python\\python3.7.2\\lib\\email\\contentmanager.py',
   'PYMODULE'),
  ('email.policy',
   'f:\\python\\python3.7.2\\lib\\email\\policy.py',
   'PYMODULE'),
  ('email.message',
   'f:\\python\\python3.7.2\\lib\\email\\message.py',
   'PYMODULE'),
  ('bz2', 'f:\\python\\python3.7.2\\lib\\bz2.py', 'PYMODULE'),
  ('lzma', 'f:\\python\\python3.7.2\\lib\\lzma.py', 'PYMODULE'),
  ('_compression', 'f:\\python\\python3.7.2\\lib\\_compression.py', 'PYMODULE'),
  ('gzip', 'f:\\python\\python3.7.2\\lib\\gzip.py', 'PYMODULE'),
  ('tarfile', 'f:\\python\\python3.7.2\\lib\\tarfile.py', 'PYMODULE'),
  ('py_compile', 'f:\\python\\python3.7.2\\lib\\py_compile.py', 'PYMODULE'),
  ('zipfile', 'f:\\python\\python3.7.2\\lib\\zipfile.py', 'PYMODULE'),
  ('shutil', 'f:\\python\\python3.7.2\\lib\\shutil.py', 'PYMODULE'),
  ('socket', 'f:\\python\\python3.7.2\\lib\\socket.py', 'PYMODULE'),
  ('webbrowser', 'f:\\python\\python3.7.2\\lib\\webbrowser.py', 'PYMODULE'),
  ('pydoc', 'f:\\python\\python3.7.2\\lib\\pydoc.py', 'PYMODULE'),
  ('getopt', 'f:\\python\\python3.7.2\\lib\\getopt.py', 'PYMODULE'),
  ('pdb', 'f:\\python\\python3.7.2\\lib\\pdb.py', 'PYMODULE'),
  ('unittest.util',
   'f:\\python\\python3.7.2\\lib\\unittest\\util.py',
   'PYMODULE'),
  ('unittest.result',
   'f:\\python\\python3.7.2\\lib\\unittest\\result.py',
   'PYMODULE'),
  ('string', 'f:\\python\\python3.7.2\\lib\\string.py', 'PYMODULE'),
  ('logging', 'f:\\python\\python3.7.2\\lib\\logging\\__init__.py', 'PYMODULE'),
  ('unittest.case',
   'f:\\python\\python3.7.2\\lib\\unittest\\case.py',
   'PYMODULE'),
  ('unittest.suite',
   'f:\\python\\python3.7.2\\lib\\unittest\\suite.py',
   'PYMODULE'),
  ('unittest.loader',
   'f:\\python\\python3.7.2\\lib\\unittest\\loader.py',
   'PYMODULE'),
  ('unittest.runner',
   'f:\\python\\python3.7.2\\lib\\unittest\\runner.py',
   'PYMODULE'),
  ('unittest.main',
   'f:\\python\\python3.7.2\\lib\\unittest\\main.py',
   'PYMODULE'),
  ('unittest.signals',
   'f:\\python\\python3.7.2\\lib\\unittest\\signals.py',
   'PYMODULE'),
  ('unittest',
   'f:\\python\\python3.7.2\\lib\\unittest\\__init__.py',
   'PYMODULE'),
  ('doctest', 'f:\\python\\python3.7.2\\lib\\doctest.py', 'PYMODULE'),
  ('stat', 'f:\\python\\python3.7.2\\lib\\stat.py', 'PYMODULE'),
  ('genericpath', 'f:\\python\\python3.7.2\\lib\\genericpath.py', 'PYMODULE'),
  ('posixpath', 'f:\\python\\python3.7.2\\lib\\posixpath.py', 'PYMODULE'),
  ('signal', 'f:\\python\\python3.7.2\\lib\\signal.py', 'PYMODULE'),
  ('_threading_local',
   'f:\\python\\python3.7.2\\lib\\_threading_local.py',
   'PYMODULE'),
  ('threading', 'f:\\python\\python3.7.2\\lib\\threading.py', 'PYMODULE'),
  ('selectors', 'f:\\python\\python3.7.2\\lib\\selectors.py', 'PYMODULE'),
  ('subprocess', 'f:\\python\\python3.7.2\\lib\\subprocess.py', 'PYMODULE'),
  ('os', 'f:\\python\\python3.7.2\\lib\\os.py', 'PYMODULE'),
  ('gettext', 'f:\\python\\python3.7.2\\lib\\gettext.py', 'PYMODULE'),
  ('textwrap', 'f:\\python\\python3.7.2\\lib\\textwrap.py', 'PYMODULE'),
  ('argparse', 'f:\\python\\python3.7.2\\lib\\argparse.py', 'PYMODULE'),
  ('pprint', 'f:\\python\\python3.7.2\\lib\\pprint.py', 'PYMODULE'),
  ('pickle', 'f:\\python\\python3.7.2\\lib\\pickle.py', 'PYMODULE'),
  ('tracemalloc', 'f:\\python\\python3.7.2\\lib\\tracemalloc.py', 'PYMODULE'),
  ('_py_abc', 'f:\\python\\python3.7.2\\lib\\_py_abc.py', 'PYMODULE'),
  ('copy', 'f:\\python\\python3.7.2\\lib\\copy.py', 'PYMODULE'),
  ('contextlib', 'f:\\python\\python3.7.2\\lib\\contextlib.py', 'PYMODULE'),
  ('typing', 'f:\\python\\python3.7.2\\lib\\typing.py', 'PYMODULE'),
  ('images', '-', 'PYMODULE'),
  ('ThePlaneWar',
   'D:\\PyCharm_WorkStation\\pygame\\plane\\ThePlaneWar.py',
   'PYMODULE'),
  ('Threads.Threads',
   'D:\\PyCharm_WorkStation\\pygame\\plane\\Threads\\Threads.py',
   'PYMODULE'),
  ('Threads', '-', 'PYMODULE'),
  ('planeSprite.sprites',
   'D:\\PyCharm_WorkStation\\pygame\\plane\\planeSprite\\sprites.py',
   'PYMODULE'),
  ('planeSprite', '-', 'PYMODULE'),
  ('pygame',
   'f:\\python\\python3.7.2\\lib\\site-packages\\pygame\\__init__.py',
   'PYMODULE'),
  ('pygame.colordict',
   'f:\\python\\python3.7.2\\lib\\site-packages\\pygame\\colordict.py',
   'PYMODULE'),
  ('pygame.macosx',
   'f:\\python\\python3.7.2\\lib\\site-packages\\pygame\\macosx.py',
   'PYMODULE'),
  ('pygame.pkgdata',
   'f:\\python\\python3.7.2\\lib\\site-packages\\pygame\\pkgdata.py',
   'PYMODULE'),
  ('numpy',
   'f:\\python\\python3.7.2\\lib\\site-packages\\numpy\\__init__.py',
   'PYMODULE'),
  ('numpy._pytesttester',
   'f:\\python\\python3.7.2\\lib\\site-packages\\numpy\\_pytesttester.py',
   'PYMODULE'),
  ('numpy.distutils.cpuinfo',
   'f:\\python\\python3.7.2\\lib\\site-packages\\numpy\\distutils\\cpuinfo.py',
   'PYMODULE'),
  ('numpy.distutils.compat',
   'f:\\python\\python3.7.2\\lib\\site-packages\\numpy\\distutils\\compat.py',
   'PYMODULE'),
  ('numpy.distutils',
   'f:\\python\\python3.7.2\\lib\\site-packages\\numpy\\distutils\\__init__.py',
   'PYMODULE'),
  ('numpy.distutils.fcompiler',
   'f:\\python\\python3.7.2\\lib\\site-packages\\numpy\\distutils\\fcompiler\\__init__.py',
   'PYMODULE'),
  ('numpy.distutils.command.config_compiler',
   'f:\\python\\python3.7.2\\lib\\site-packages\\numpy\\distutils\\command\\config_compiler.py',
   'PYMODULE'),
  ('numpy.distutils.command',
   'f:\\python\\python3.7.2\\lib\\site-packages\\numpy\\distutils\\command\\__init__.py',
   'PYMODULE'),
  ('numpy.distutils.command.egg_info',
   'f:\\python\\python3.7.2\\lib\\site-packages\\numpy\\distutils\\command\\egg_info.py',
   'PYMODULE'),
  ('setuptools.command.egg_info',
   'f:\\python\\python3.7.2\\lib\\site-packages\\setuptools\\command\\egg_info.py',
   'PYMODULE'),
  ('setuptools.glob',
   'f:\\python\\python3.7.2\\lib\\site-packages\\setuptools\\glob.py',
   'PYMODULE'),
  ('setuptools.unicode_utils',
   'f:\\python\\python3.7.2\\lib\\site-packages\\setuptools\\unicode_utils.py',
   'PYMODULE'),
  ('setuptools.command.bdist_egg',
   'f:\\python\\python3.7.2\\lib\\site-packages\\setuptools\\command\\bdist_egg.py',
   'PYMODULE'),
  ('setuptools.extension',
   'f:\\python\\python3.7.2\\lib\\site-packages\\setuptools\\extension.py',
   'PYMODULE'),
  ('setuptools.monkey',
   'f:\\python\\python3.7.2\\lib\\site-packages\\setuptools\\monkey.py',
   'PYMODULE'),
  ('distutils.extension',
   'f:\\python\\python3.7.2\\lib\\distutils\\extension.py',
   'PYMODULE'),
  ('setuptools.command',
   'f:\\python\\python3.7.2\\lib\\site-packages\\setuptools\\command\\__init__.py',
   'PYMODULE'),
  ('setuptools.command.install_scripts',
   'f:\\python\\python3.7.2\\lib\\site-packages\\setuptools\\command\\install_scripts.py',
   'PYMODULE'),
  ('setuptools.command.easy_install',
   'f:\\python\\python3.7.2\\lib\\site-packages\\setuptools\\command\\easy_install.py',
   'PYMODULE'),
  ('setuptools.dist',
   'f:\\python\\python3.7.2\\lib\\site-packages\\setuptools\\dist.py',
   'PYMODULE'),
  ('setuptools.py36compat',
   'f:\\python\\python3.7.2\\lib\\site-packages\\setuptools\\py36compat.py',
   'PYMODULE'),
  ('configparser', 'f:\\python\\python3.7.2\\lib\\configparser.py', 'PYMODULE'),
  ('setuptools.config',
   'f:\\python\\python3.7.2\\lib\\site-packages\\setuptools\\config.py',
   'PYMODULE'),
  ('setuptools.windows_support',
   'f:\\python\\python3.7.2\\lib\\site-packages\\setuptools\\windows_support.py',
   'PYMODULE'),
  ('setuptools.depends',
   'f:\\python\\python3.7.2\\lib\\site-packages\\setuptools\\depends.py',
   'PYMODULE'),
  ('setuptools.py33compat',
   'f:\\python\\python3.7.2\\lib\\site-packages\\setuptools\\py33compat.py',
   'PYMODULE'),
  ('html.parser', 'f:\\python\\python3.7.2\\lib\\html\\parser.py', 'PYMODULE'),
  ('_markupbase', 'f:\\python\\python3.7.2\\lib\\_markupbase.py', 'PYMODULE'),
  ('distutils.cmd',
   'f:\\python\\python3.7.2\\lib\\distutils\\cmd.py',
   'PYMODULE'),
  ('setuptools.wheel',
   'f:\\python\\python3.7.2\\lib\\site-packages\\setuptools\\wheel.py',
   'PYMODULE'),
  ('setuptools.pep425tags',
   'f:\\python\\python3.7.2\\lib\\site-packages\\setuptools\\pep425tags.py',
   'PYMODULE'),
  ('setuptools.glibc',
   'f:\\python\\python3.7.2\\lib\\site-packages\\setuptools\\glibc.py',
   'PYMODULE'),
  ('setuptools.package_index',
   'f:\\python\\python3.7.2\\lib\\site-packages\\setuptools\\package_index.py',
   'PYMODULE'),
  ('setuptools.ssl_support',
   'f:\\python\\python3.7.2\\lib\\site-packages\\setuptools\\ssl_support.py',
   'PYMODULE'),
  ('setuptools.archive_util',
   'f:\\python\\python3.7.2\\lib\\site-packages\\setuptools\\archive_util.py',
   'PYMODULE'),
  ('setuptools.py27compat',
   'f:\\python\\python3.7.2\\lib\\site-packages\\setuptools\\py27compat.py',
   'PYMODULE'),
  ('setuptools.sandbox',
   'f:\\python\\python3.7.2\\lib\\site-packages\\setuptools\\sandbox.py',
   'PYMODULE'),
  ('distutils.command.build_scripts',
   'f:\\python\\python3.7.2\\lib\\distutils\\command\\build_scripts.py',
   'PYMODULE'),
  ('distutils.command',
   'f:\\python\\python3.7.2\\lib\\distutils\\command\\__init__.py',
   'PYMODULE'),
  ('distutils.command.install',
   'f:\\python\\python3.7.2\\lib\\distutils\\command\\install.py',
   'PYMODULE'),
  ('distutils.command.install_scripts',
   'f:\\python\\python3.7.2\\lib\\distutils\\command\\install_scripts.py',
   'PYMODULE'),
  ('distutils.command.bdist',
   'f:\\python\\python3.7.2\\lib\\distutils\\command\\bdist.py',
   'PYMODULE'),
  ('setuptools.command.setopt',
   'f:\\python\\python3.7.2\\lib\\site-packages\\setuptools\\command\\setopt.py',
   'PYMODULE'),
  ('setuptools.command.sdist',
   'f:\\python\\python3.7.2\\lib\\site-packages\\setuptools\\command\\sdist.py',
   'PYMODULE'),
  ('setuptools.command.py36compat',
   'f:\\python\\python3.7.2\\lib\\site-packages\\setuptools\\command\\py36compat.py',
   'PYMODULE'),
  ('distutils.command.sdist',
   'f:\\python\\python3.7.2\\lib\\distutils\\command\\sdist.py',
   'PYMODULE'),
  ('setuptools',
   'f:\\python\\python3.7.2\\lib\\site-packages\\setuptools\\__init__.py',
   'PYMODULE'),
  ('setuptools._vendor.packaging.specifiers',
   'f:\\python\\python3.7.2\\lib\\site-packages\\setuptools\\_vendor\\packaging\\specifiers.py',
   'PYMODULE'),
  ('setuptools._vendor.packaging._structures',
   'f:\\python\\python3.7.2\\lib\\site-packages\\setuptools\\_vendor\\packaging\\_structures.py',
   'PYMODULE'),
  ('setuptools._vendor.packaging._compat',
   'f:\\python\\python3.7.2\\lib\\site-packages\\setuptools\\_vendor\\packaging\\_compat.py',
   'PYMODULE'),
  ('setuptools._vendor.packaging',
   'f:\\python\\python3.7.2\\lib\\site-packages\\setuptools\\_vendor\\packaging\\__init__.py',
   'PYMODULE'),
  ('setuptools._vendor',
   'f:\\python\\python3.7.2\\lib\\site-packages\\setuptools\\_vendor\\__init__.py',
   'PYMODULE'),
  ('setuptools._vendor.pyparsing',
   'f:\\python\\python3.7.2\\lib\\site-packages\\setuptools\\_vendor\\pyparsing.py',
   'PYMODULE'),
  ('setuptools._vendor.packaging.requirements',
   'f:\\python\\python3.7.2\\lib\\site-packages\\setuptools\\_vendor\\packaging\\requirements.py',
   'PYMODULE'),
  ('setuptools._vendor.six',
   'f:\\python\\python3.7.2\\lib\\site-packages\\setuptools\\_vendor\\six.py',
   'PYMODULE'),
  ('setuptools._vendor.packaging.__about__',
   'f:\\python\\python3.7.2\\lib\\site-packages\\setuptools\\_vendor\\packaging\\__about__.py',
   'PYMODULE'),
  ('setuptools._vendor.packaging.markers',
   'f:\\python\\python3.7.2\\lib\\site-packages\\setuptools\\_vendor\\packaging\\markers.py',
   'PYMODULE'),
  ('setuptools._vendor.packaging.version',
   'f:\\python\\python3.7.2\\lib\\site-packages\\setuptools\\_vendor\\packaging\\version.py',
   'PYMODULE'),
  ('setuptools._vendor.packaging.utils',
   'f:\\python\\python3.7.2\\lib\\site-packages\\setuptools\\_vendor\\packaging\\utils.py',
   'PYMODULE'),
  ('setuptools.msvc',
   'f:\\python\\python3.7.2\\lib\\site-packages\\setuptools\\msvc.py',
   'PYMODULE'),
  ('distutils.msvc9compiler',
   'f:\\python\\python3.7.2\\lib\\distutils\\msvc9compiler.py',
   'PYMODULE'),
  ('distutils.command.build_ext',
   'f:\\python\\python3.7.2\\lib\\distutils\\command\\build_ext.py',
   'PYMODULE'),
  ('distutils._msvccompiler',
   'f:\\python\\python3.7.2\\lib\\distutils\\_msvccompiler.py',
   'PYMODULE'),
  ('concurrent.futures',
   'f:\\python\\python3.7.2\\lib\\concurrent\\futures\\__init__.py',
   'PYMODULE'),
  ('concurrent.futures.thread',
   'f:\\python\\python3.7.2\\lib\\concurrent\\futures\\thread.py',
   'PYMODULE'),
  ('concurrent.futures.process',
   'f:\\python\\python3.7.2\\lib\\concurrent\\futures\\process.py',
   'PYMODULE'),
  ('concurrent.futures._base',
   'f:\\python\\python3.7.2\\lib\\concurrent\\futures\\_base.py',
   'PYMODULE'),
  ('concurrent',
   'f:\\python\\python3.7.2\\lib\\concurrent\\__init__.py',
   'PYMODULE'),
  ('setuptools.namespaces',
   'f:\\python\\python3.7.2\\lib\\site-packages\\setuptools\\namespaces.py',
   'PYMODULE'),
  ('setuptools.version',
   'f:\\python\\python3.7.2\\lib\\site-packages\\setuptools\\version.py',
   'PYMODULE'),
  ('setuptools._deprecation_warning',
   'f:\\python\\python3.7.2\\lib\\site-packages\\setuptools\\_deprecation_warning.py',
   'PYMODULE'),
  ('setuptools.extern',
   'f:\\python\\python3.7.2\\lib\\site-packages\\setuptools\\extern\\__init__.py',
   'PYMODULE'),
  ('numpy.distutils.command.develop',
   'f:\\python\\python3.7.2\\lib\\site-packages\\numpy\\distutils\\command\\develop.py',
   'PYMODULE'),
  ('setuptools.command.develop',
   'f:\\python\\python3.7.2\\lib\\site-packages\\setuptools\\command\\develop.py',
   'PYMODULE'),
  ('numpy.distutils.command.install_clib',
   'f:\\python\\python3.7.2\\lib\\site-packages\\numpy\\distutils\\command\\install_clib.py',
   'PYMODULE'),
  ('numpy.distutils.command.bdist_rpm',
   'f:\\python\\python3.7.2\\lib\\site-packages\\numpy\\distutils\\command\\bdist_rpm.py',
   'PYMODULE'),
  ('distutils.command.bdist_rpm',
   'f:\\python\\python3.7.2\\lib\\distutils\\command\\bdist_rpm.py',
   'PYMODULE'),
  ('setuptools.command.bdist_rpm',
   'f:\\python\\python3.7.2\\lib\\site-packages\\setuptools\\command\\bdist_rpm.py',
   'PYMODULE'),
  ('numpy.distutils.command.install',
   'f:\\python\\python3.7.2\\lib\\site-packages\\numpy\\distutils\\command\\install.py',
   'PYMODULE'),
  ('setuptools.command.install',
   'f:\\python\\python3.7.2\\lib\\site-packages\\setuptools\\command\\install.py',
   'PYMODULE'),
  ('numpy.distutils.command.install_headers',
   'f:\\python\\python3.7.2\\lib\\site-packages\\numpy\\distutils\\command\\install_headers.py',
   'PYMODULE'),
  ('distutils.command.install_headers',
   'f:\\python\\python3.7.2\\lib\\distutils\\command\\install_headers.py',
   'PYMODULE'),
  ('numpy.distutils.command.install_data',
   'f:\\python\\python3.7.2\\lib\\site-packages\\numpy\\distutils\\command\\install_data.py',
   'PYMODULE'),
  ('distutils.command.install_data',
   'f:\\python\\python3.7.2\\lib\\distutils\\command\\install_data.py',
   'PYMODULE'),
  ('numpy.distutils.command.sdist',
   'f:\\python\\python3.7.2\\lib\\site-packages\\numpy\\distutils\\command\\sdist.py',
   'PYMODULE'),
  ('numpy.distutils.command.build_scripts',
   'f:\\python\\python3.7.2\\lib\\site-packages\\numpy\\distutils\\command\\build_scripts.py',
   'PYMODULE'),
  ('numpy.distutils.command.build_clib',
   'f:\\python\\python3.7.2\\lib\\site-packages\\numpy\\distutils\\command\\build_clib.py',
   'PYMODULE'),
  ('distutils.command.build_clib',
   'f:\\python\\python3.7.2\\lib\\distutils\\command\\build_clib.py',
   'PYMODULE'),
  ('numpy.distutils.command.build_ext',
   'f:\\python\\python3.7.2\\lib\\site-packages\\numpy\\distutils\\command\\build_ext.py',
   'PYMODULE'),
  ('numpy.distutils.system_info',
   'f:\\python\\python3.7.2\\lib\\site-packages\\numpy\\distutils\\system_info.py',
   'PYMODULE'),
  ('numpy.f2py',
   'f:\\python\\python3.7.2\\lib\\site-packages\\numpy\\f2py\\__init__.py',
   'PYMODULE'),
  ('numpy.f2py.diagnose',
   'f:\\python\\python3.7.2\\lib\\site-packages\\numpy\\f2py\\diagnose.py',
   'PYMODULE'),
  ('numpy.f2py.f2py_testing',
   'f:\\python\\python3.7.2\\lib\\site-packages\\numpy\\f2py\\f2py_testing.py',
   'PYMODULE'),
  ('numpy.f2py.f2py2e',
   'f:\\python\\python3.7.2\\lib\\site-packages\\numpy\\f2py\\f2py2e.py',
   'PYMODULE'),
  ('numpy.distutils.command.build_src',
   'f:\\python\\python3.7.2\\lib\\site-packages\\numpy\\distutils\\command\\build_src.py',
   'PYMODULE'),
  ('numpy.distutils.conv_template',
   'f:\\python\\python3.7.2\\lib\\site-packages\\numpy\\distutils\\conv_template.py',
   'PYMODULE'),
  ('numpy.distutils.from_template',
   'f:\\python\\python3.7.2\\lib\\site-packages\\numpy\\distutils\\from_template.py',
   'PYMODULE'),
  ('numpy.f2py.auxfuncs',
   'f:\\python\\python3.7.2\\lib\\site-packages\\numpy\\f2py\\auxfuncs.py',
   'PYMODULE'),
  ('numpy.f2py.f90mod_rules',
   'f:\\python\\python3.7.2\\lib\\site-packages\\numpy\\f2py\\f90mod_rules.py',
   'PYMODULE'),
  ('numpy.f2py.rules',
   'f:\\python\\python3.7.2\\lib\\site-packages\\numpy\\f2py\\rules.py',
   'PYMODULE'),
  ('numpy.f2py.use_rules',
   'f:\\python\\python3.7.2\\lib\\site-packages\\numpy\\f2py\\use_rules.py',
   'PYMODULE'),
  ('numpy.f2py.common_rules',
   'f:\\python\\python3.7.2\\lib\\site-packages\\numpy\\f2py\\common_rules.py',
   'PYMODULE'),
  ('numpy.f2py.func2subr',
   'f:\\python\\python3.7.2\\lib\\site-packages\\numpy\\f2py\\func2subr.py',
   'PYMODULE'),
  ('numpy.f2py.crackfortran',
   'f:\\python\\python3.7.2\\lib\\site-packages\\numpy\\f2py\\crackfortran.py',
   'PYMODULE'),
  ('fileinput', 'f:\\python\\python3.7.2\\lib\\fileinput.py', 'PYMODULE'),
  ('numpy.f2py.cb_rules',
   'f:\\python\\python3.7.2\\lib\\site-packages\\numpy\\f2py\\cb_rules.py',
   'PYMODULE'),
  ('numpy.f2py.capi_maps',
   'f:\\python\\python3.7.2\\lib\\site-packages\\numpy\\f2py\\capi_maps.py',
   'PYMODULE'),
  ('numpy.f2py.cfuncs',
   'f:\\python\\python3.7.2\\lib\\site-packages\\numpy\\f2py\\cfuncs.py',
   'PYMODULE'),
  ('numpy.f2py.__version__',
   'f:\\python\\python3.7.2\\lib\\site-packages\\numpy\\f2py\\__version__.py',
   'PYMODULE'),
  ('numpy.distutils.command.build_py',
   'f:\\python\\python3.7.2\\lib\\site-packages\\numpy\\distutils\\command\\build_py.py',
   'PYMODULE'),
  ('distutils.command.build_py',
   'f:\\python\\python3.7.2\\lib\\distutils\\command\\build_py.py',
   'PYMODULE'),
  ('numpy.distutils.command.build',
   'f:\\python\\python3.7.2\\lib\\site-packages\\numpy\\distutils\\command\\build.py',
   'PYMODULE'),
  ('distutils.command.build',
   'f:\\python\\python3.7.2\\lib\\distutils\\command\\build.py',
   'PYMODULE'),
  ('numpy.distutils.command.config',
   'f:\\python\\python3.7.2\\lib\\site-packages\\numpy\\distutils\\command\\config.py',
   'PYMODULE'),
  ('numpy.distutils.command.autodist',
   'f:\\python\\python3.7.2\\lib\\site-packages\\numpy\\distutils\\command\\autodist.py',
   'PYMODULE'),
  ('numpy.distutils.mingw32ccompiler',
   'f:\\python\\python3.7.2\\lib\\site-packages\\numpy\\distutils\\mingw32ccompiler.py',
   'PYMODULE'),
  ('distutils.msvccompiler',
   'f:\\python\\python3.7.2\\lib\\distutils\\msvccompiler.py',
   'PYMODULE'),
  ('distutils.unixccompiler',
   'f:\\python\\python3.7.2\\lib\\distutils\\unixccompiler.py',
   'PYMODULE'),
  ('distutils.cygwinccompiler',
   'f:\\python\\python3.7.2\\lib\\distutils\\cygwinccompiler.py',
   'PYMODULE'),
  ('distutils.command.config',
   'f:\\python\\python3.7.2\\lib\\distutils\\command\\config.py',
   'PYMODULE'),
  ('distutils.core',
   'f:\\python\\python3.7.2\\lib\\distutils\\core.py',
   'PYMODULE'),
  ('distutils.config',
   'f:\\python\\python3.7.2\\lib\\distutils\\config.py',
   'PYMODULE'),
  ('cgi', 'f:\\python\\python3.7.2\\lib\\cgi.py', 'PYMODULE'),
  ('distutils.dist',
   'f:\\python\\python3.7.2\\lib\\distutils\\dist.py',
   'PYMODULE'),
  ('distutils.versionpredicate',
   'f:\\python\\python3.7.2\\lib\\distutils\\versionpredicate.py',
   'PYMODULE'),
  ('numpy.distutils.core',
   'f:\\python\\python3.7.2\\lib\\site-packages\\numpy\\distutils\\core.py',
   'PYMODULE'),
  ('numpy.distutils.numpy_distribution',
   'f:\\python\\python3.7.2\\lib\\site-packages\\numpy\\distutils\\numpy_distribution.py',
   'PYMODULE'),
  ('numpy.distutils.extension',
   'f:\\python\\python3.7.2\\lib\\site-packages\\numpy\\distutils\\extension.py',
   'PYMODULE'),
  ('numpy.distutils.fcompiler.environment',
   'f:\\python\\python3.7.2\\lib\\site-packages\\numpy\\distutils\\fcompiler\\environment.py',
   'PYMODULE'),
  ('numpy.distutils.exec_command',
   'f:\\python\\python3.7.2\\lib\\site-packages\\numpy\\distutils\\exec_command.py',
   'PYMODULE'),
  ('numpy.distutils.misc_util',
   'f:\\python\\python3.7.2\\lib\\site-packages\\numpy\\distutils\\misc_util.py',
   'PYMODULE'),
  ('curses', 'f:\\python\\python3.7.2\\lib\\curses\\__init__.py', 'PYMODULE'),
  ('curses.has_key',
   'f:\\python\\python3.7.2\\lib\\curses\\has_key.py',
   'PYMODULE'),
  ('dummy_threading',
   'f:\\python\\python3.7.2\\lib\\dummy_threading.py',
   'PYMODULE'),
  ('_dummy_thread',
   'f:\\python\\python3.7.2\\lib\\_dummy_thread.py',
   'PYMODULE'),
  ('numpy.distutils.__config__',
   'f:\\python\\python3.7.2\\lib\\site-packages\\numpy\\distutils\\__config__.py',
   'PYMODULE'),
  ('numpy.distutils.npy_pkg_config',
   'f:\\python\\python3.7.2\\lib\\site-packages\\numpy\\distutils\\npy_pkg_config.py',
   'PYMODULE'),
  ('numpy.distutils.info',
   'f:\\python\\python3.7.2\\lib\\site-packages\\numpy\\distutils\\info.py',
   'PYMODULE'),
  ('numpy.distutils.unixccompiler',
   'f:\\python\\python3.7.2\\lib\\site-packages\\numpy\\distutils\\unixccompiler.py',
   'PYMODULE'),
  ('numpy.distutils.ccompiler',
   'f:\\python\\python3.7.2\\lib\\site-packages\\numpy\\distutils\\ccompiler.py',
   'PYMODULE'),
  ('numpy.distutils._shell_utils',
   'f:\\python\\python3.7.2\\lib\\site-packages\\numpy\\distutils\\_shell_utils.py',
   'PYMODULE'),
  ('pipes', 'f:\\python\\python3.7.2\\lib\\pipes.py', 'PYMODULE'),
  ('numpy.distutils.lib2def',
   'f:\\python\\python3.7.2\\lib\\site-packages\\numpy\\distutils\\lib2def.py',
   'PYMODULE'),
  ('numpy.distutils.log',
   'f:\\python\\python3.7.2\\lib\\site-packages\\numpy\\distutils\\log.py',
   'PYMODULE'),
  ('numpy.distutils.__version__',
   'f:\\python\\python3.7.2\\lib\\site-packages\\numpy\\distutils\\__version__.py',
   'PYMODULE'),
  ('numpy.testing',
   'f:\\python\\python3.7.2\\lib\\site-packages\\numpy\\testing\\__init__.py',
   'PYMODULE'),
  ('numpy.testing._private.nosetester',
   'f:\\python\\python3.7.2\\lib\\site-packages\\numpy\\testing\\_private\\nosetester.py',
   'PYMODULE'),
  ('numpy.testing._private.noseclasses',
   'f:\\python\\python3.7.2\\lib\\site-packages\\numpy\\testing\\_private\\noseclasses.py',
   'PYMODULE'),
  ('numpy.testing._private.decorators',
   'f:\\python\\python3.7.2\\lib\\site-packages\\numpy\\testing\\_private\\decorators.py',
   'PYMODULE'),
  ('numpy.testing._private.parameterized',
   'f:\\python\\python3.7.2\\lib\\site-packages\\numpy\\testing\\_private\\parameterized.py',
   'PYMODULE'),
  ('numpy.testing._private',
   'f:\\python\\python3.7.2\\lib\\site-packages\\numpy\\testing\\_private\\__init__.py',
   'PYMODULE'),
  ('numpy.testing._private.utils',
   'f:\\python\\python3.7.2\\lib\\site-packages\\numpy\\testing\\_private\\utils.py',
   'PYMODULE'),
  ('numpy.core.fromnumeric',
   'f:\\python\\python3.7.2\\lib\\site-packages\\numpy\\core\\fromnumeric.py',
   'PYMODULE'),
  ('numpy.core._methods',
   'f:\\python\\python3.7.2\\lib\\site-packages\\numpy\\core\\_methods.py',
   'PYMODULE'),
  ('numpy.core._exceptions',
   'f:\\python\\python3.7.2\\lib\\site-packages\\numpy\\core\\_exceptions.py',
   'PYMODULE'),
  ('numpy.core._asarray',
   'f:\\python\\python3.7.2\\lib\\site-packages\\numpy\\core\\_asarray.py',
   'PYMODULE'),
  ('numpy.core.umath',
   'f:\\python\\python3.7.2\\lib\\site-packages\\numpy\\core\\umath.py',
   'PYMODULE'),
  ('numpy.core.overrides',
   'f:\\python\\python3.7.2\\lib\\site-packages\\numpy\\core\\overrides.py',
   'PYMODULE'),
  ('numpy.compat._inspect',
   'f:\\python\\python3.7.2\\lib\\site-packages\\numpy\\compat\\_inspect.py',
   'PYMODULE'),
  ('numpy.core.multiarray',
   'f:\\python\\python3.7.2\\lib\\site-packages\\numpy\\core\\multiarray.py',
   'PYMODULE'),
  ('numpy.core.numerictypes',
   'f:\\python\\python3.7.2\\lib\\site-packages\\numpy\\core\\numerictypes.py',
   'PYMODULE'),
  ('numpy.core._dtype',
   'f:\\python\\python3.7.2\\lib\\site-packages\\numpy\\core\\_dtype.py',
   'PYMODULE'),
  ('numpy.core._type_aliases',
   'f:\\python\\python3.7.2\\lib\\site-packages\\numpy\\core\\_type_aliases.py',
   'PYMODULE'),
  ('numpy.core._string_helpers',
   'f:\\python\\python3.7.2\\lib\\site-packages\\numpy\\core\\_string_helpers.py',
   'PYMODULE'),
  ('numpy.lib.utils',
   'f:\\python\\python3.7.2\\lib\\site-packages\\numpy\\lib\\utils.py',
   'PYMODULE'),
  ('numpy.matrixlib',
   'f:\\python\\python3.7.2\\lib\\site-packages\\numpy\\matrixlib\\__init__.py',
   'PYMODULE'),
  ('numpy.matrixlib.defmatrix',
   'f:\\python\\python3.7.2\\lib\\site-packages\\numpy\\matrixlib\\defmatrix.py',
   'PYMODULE'),
  ('numpy.dual',
   'f:\\python\\python3.7.2\\lib\\site-packages\\numpy\\dual.py',
   'PYMODULE'),
  ('numpy.core.numeric',
   'f:\\python\\python3.7.2\\lib\\site-packages\\numpy\\core\\numeric.py',
   'PYMODULE'),
  ('numpy.core.arrayprint',
   'f:\\python\\python3.7.2\\lib\\site-packages\\numpy\\core\\arrayprint.py',
   'PYMODULE'),
  ('numpy.core._ufunc_config',
   'f:\\python\\python3.7.2\\lib\\site-packages\\numpy\\core\\_ufunc_config.py',
   'PYMODULE'),
  ('numpy.ma',
   'f:\\python\\python3.7.2\\lib\\site-packages\\numpy\\ma\\__init__.py',
   'PYMODULE'),
  ('numpy.ma.extras',
   'f:\\python\\python3.7.2\\lib\\site-packages\\numpy\\ma\\extras.py',
   'PYMODULE'),
  ('numpy.lib.index_tricks',
   'f:\\python\\python3.7.2\\lib\\site-packages\\numpy\\lib\\index_tricks.py',
   'PYMODULE'),
  ('numpy.lib.stride_tricks',
   'f:\\python\\python3.7.2\\lib\\site-packages\\numpy\\lib\\stride_tricks.py',
   'PYMODULE'),
  ('numpy.lib.function_base',
   'f:\\python\\python3.7.2\\lib\\site-packages\\numpy\\lib\\function_base.py',
   'PYMODULE'),
  ('numpy.lib.histograms',
   'f:\\python\\python3.7.2\\lib\\site-packages\\numpy\\lib\\histograms.py',
   'PYMODULE'),
  ('numpy.compat.py3k',
   'f:\\python\\python3.7.2\\lib\\site-packages\\numpy\\compat\\py3k.py',
   'PYMODULE'),
  ('pathlib', 'f:\\python\\python3.7.2\\lib\\pathlib.py', 'PYMODULE'),
  ('numpy.lib.twodim_base',
   'f:\\python\\python3.7.2\\lib\\site-packages\\numpy\\lib\\twodim_base.py',
   'PYMODULE'),
  ('numpy.core.function_base',
   'f:\\python\\python3.7.2\\lib\\site-packages\\numpy\\core\\function_base.py',
   'PYMODULE'),
  ('numpy.ma.core',
   'f:\\python\\python3.7.2\\lib\\site-packages\\numpy\\ma\\core.py',
   'PYMODULE'),
  ('numpy.core._internal',
   'f:\\python\\python3.7.2\\lib\\site-packages\\numpy\\core\\_internal.py',
   'PYMODULE'),
  ('numpy.ctypeslib',
   'f:\\python\\python3.7.2\\lib\\site-packages\\numpy\\ctypeslib.py',
   'PYMODULE'),
  ('numpy.random',
   'f:\\python\\python3.7.2\\lib\\site-packages\\numpy\\random\\__init__.py',
   'PYMODULE'),
  ('numpy.polynomial',
   'f:\\python\\python3.7.2\\lib\\site-packages\\numpy\\polynomial\\__init__.py',
   'PYMODULE'),
  ('numpy.polynomial.laguerre',
   'f:\\python\\python3.7.2\\lib\\site-packages\\numpy\\polynomial\\laguerre.py',
   'PYMODULE'),
  ('numpy.polynomial._polybase',
   'f:\\python\\python3.7.2\\lib\\site-packages\\numpy\\polynomial\\_polybase.py',
   'PYMODULE'),
  ('numpy.polynomial.hermite_e',
   'f:\\python\\python3.7.2\\lib\\site-packages\\numpy\\polynomial\\hermite_e.py',
   'PYMODULE'),
  ('numpy.polynomial.hermite',
   'f:\\python\\python3.7.2\\lib\\site-packages\\numpy\\polynomial\\hermite.py',
   'PYMODULE'),
  ('numpy.polynomial.legendre',
   'f:\\python\\python3.7.2\\lib\\site-packages\\numpy\\polynomial\\legendre.py',
   'PYMODULE'),
  ('numpy.polynomial.chebyshev',
   'f:\\python\\python3.7.2\\lib\\site-packages\\numpy\\polynomial\\chebyshev.py',
   'PYMODULE'),
  ('numpy.polynomial.polynomial',
   'f:\\python\\python3.7.2\\lib\\site-packages\\numpy\\polynomial\\polynomial.py',
   'PYMODULE'),
  ('numpy.polynomial.polyutils',
   'f:\\python\\python3.7.2\\lib\\site-packages\\numpy\\polynomial\\polyutils.py',
   'PYMODULE'),
  ('numpy.fft',
   'f:\\python\\python3.7.2\\lib\\site-packages\\numpy\\fft\\__init__.py',
   'PYMODULE'),
  ('numpy.fft.helper',
   'f:\\python\\python3.7.2\\lib\\site-packages\\numpy\\fft\\helper.py',
   'PYMODULE'),
  ('numpy.fft.pocketfft',
   'f:\\python\\python3.7.2\\lib\\site-packages\\numpy\\fft\\pocketfft.py',
   'PYMODULE'),
  ('numpy.fft.info',
   'f:\\python\\python3.7.2\\lib\\site-packages\\numpy\\fft\\info.py',
   'PYMODULE'),
  ('numpy.linalg',
   'f:\\python\\python3.7.2\\lib\\site-packages\\numpy\\linalg\\__init__.py',
   'PYMODULE'),
  ('numpy.linalg.linalg',
   'f:\\python\\python3.7.2\\lib\\site-packages\\numpy\\linalg\\linalg.py',
   'PYMODULE'),
  ('numpy.linalg.info',
   'f:\\python\\python3.7.2\\lib\\site-packages\\numpy\\linalg\\info.py',
   'PYMODULE'),
  ('numpy.lib',
   'f:\\python\\python3.7.2\\lib\\site-packages\\numpy\\lib\\__init__.py',
   'PYMODULE'),
  ('numpy.lib._version',
   'f:\\python\\python3.7.2\\lib\\site-packages\\numpy\\lib\\_version.py',
   'PYMODULE'),
  ('numpy.lib.arraypad',
   'f:\\python\\python3.7.2\\lib\\site-packages\\numpy\\lib\\arraypad.py',
   'PYMODULE'),
  ('numpy.lib.arrayterator',
   'f:\\python\\python3.7.2\\lib\\site-packages\\numpy\\lib\\arrayterator.py',
   'PYMODULE'),
  ('numpy.lib.financial',
   'f:\\python\\python3.7.2\\lib\\site-packages\\numpy\\lib\\financial.py',
   'PYMODULE'),
  ('numpy.lib.npyio',
   'f:\\python\\python3.7.2\\lib\\site-packages\\numpy\\lib\\npyio.py',
   'PYMODULE'),
  ('numpy.ma.mrecords',
   'f:\\python\\python3.7.2\\lib\\site-packages\\numpy\\ma\\mrecords.py',
   'PYMODULE'),
  ('numpy.core.records',
   'f:\\python\\python3.7.2\\lib\\site-packages\\numpy\\core\\records.py',
   'PYMODULE'),
  ('numpy.lib._iotools',
   'f:\\python\\python3.7.2\\lib\\site-packages\\numpy\\lib\\_iotools.py',
   'PYMODULE'),
  ('numpy.lib._datasource',
   'f:\\python\\python3.7.2\\lib\\site-packages\\numpy\\lib\\_datasource.py',
   'PYMODULE'),
  ('numpy.lib.format',
   'f:\\python\\python3.7.2\\lib\\site-packages\\numpy\\lib\\format.py',
   'PYMODULE'),
  ('numpy.lib.arraysetops',
   'f:\\python\\python3.7.2\\lib\\site-packages\\numpy\\lib\\arraysetops.py',
   'PYMODULE'),
  ('numpy.lib.polynomial',
   'f:\\python\\python3.7.2\\lib\\site-packages\\numpy\\lib\\polynomial.py',
   'PYMODULE'),
  ('numpy.lib.scimath',
   'f:\\python\\python3.7.2\\lib\\site-packages\\numpy\\lib\\scimath.py',
   'PYMODULE'),
  ('numpy.lib.ufunclike',
   'f:\\python\\python3.7.2\\lib\\site-packages\\numpy\\lib\\ufunclike.py',
   'PYMODULE'),
  ('numpy.lib.shape_base',
   'f:\\python\\python3.7.2\\lib\\site-packages\\numpy\\lib\\shape_base.py',
   'PYMODULE'),
  ('numpy.core.shape_base',
   'f:\\python\\python3.7.2\\lib\\site-packages\\numpy\\core\\shape_base.py',
   'PYMODULE'),
  ('numpy.lib.nanfunctions',
   'f:\\python\\python3.7.2\\lib\\site-packages\\numpy\\lib\\nanfunctions.py',
   'PYMODULE'),
  ('numpy.lib.mixins',
   'f:\\python\\python3.7.2\\lib\\site-packages\\numpy\\lib\\mixins.py',
   'PYMODULE'),
  ('numpy.lib.type_check',
   'f:\\python\\python3.7.2\\lib\\site-packages\\numpy\\lib\\type_check.py',
   'PYMODULE'),
  ('numpy.core.getlimits',
   'f:\\python\\python3.7.2\\lib\\site-packages\\numpy\\core\\getlimits.py',
   'PYMODULE'),
  ('numpy.core.machar',
   'f:\\python\\python3.7.2\\lib\\site-packages\\numpy\\core\\machar.py',
   'PYMODULE'),
  ('numpy.lib.info',
   'f:\\python\\python3.7.2\\lib\\site-packages\\numpy\\lib\\info.py',
   'PYMODULE'),
  ('numpy.compat',
   'f:\\python\\python3.7.2\\lib\\site-packages\\numpy\\compat\\__init__.py',
   'PYMODULE'),
  ('numpy.core',
   'f:\\python\\python3.7.2\\lib\\site-packages\\numpy\\core\\__init__.py',
   'PYMODULE'),
  ('numpy.core._dtype_ctypes',
   'f:\\python\\python3.7.2\\lib\\site-packages\\numpy\\core\\_dtype_ctypes.py',
   'PYMODULE'),
  ('numpy.core._add_newdocs',
   'f:\\python\\python3.7.2\\lib\\site-packages\\numpy\\core\\_add_newdocs.py',
   'PYMODULE'),
  ('numpy.core.einsumfunc',
   'f:\\python\\python3.7.2\\lib\\site-packages\\numpy\\core\\einsumfunc.py',
   'PYMODULE'),
  ('numpy.core.memmap',
   'f:\\python\\python3.7.2\\lib\\site-packages\\numpy\\core\\memmap.py',
   'PYMODULE'),
  ('numpy.core.defchararray',
   'f:\\python\\python3.7.2\\lib\\site-packages\\numpy\\core\\defchararray.py',
   'PYMODULE'),
  ('numpy.core.info',
   'f:\\python\\python3.7.2\\lib\\site-packages\\numpy\\core\\info.py',
   'PYMODULE'),
  ('numpy._distributor_init',
   'f:\\python\\python3.7.2\\lib\\site-packages\\numpy\\_distributor_init.py',
   'PYMODULE'),
  ('numpy.version',
   'f:\\python\\python3.7.2\\lib\\site-packages\\numpy\\version.py',
   'PYMODULE'),
  ('numpy.__config__',
   'f:\\python\\python3.7.2\\lib\\site-packages\\numpy\\__config__.py',
   'PYMODULE'),
  ('numpy._globals',
   'f:\\python\\python3.7.2\\lib\\site-packages\\numpy\\_globals.py',
   'PYMODULE'),
  ('pygame.sndarray',
   'f:\\python\\python3.7.2\\lib\\site-packages\\pygame\\sndarray.py',
   'PYMODULE'),
  ('pygame._numpysndarray',
   'f:\\python\\python3.7.2\\lib\\site-packages\\pygame\\_numpysndarray.py',
   'PYMODULE'),
  ('pygame.surfarray',
   'f:\\python\\python3.7.2\\lib\\site-packages\\pygame\\surfarray.py',
   'PYMODULE'),
  ('pygame._numpysurfarray',
   'f:\\python\\python3.7.2\\lib\\site-packages\\pygame\\_numpysurfarray.py',
   'PYMODULE'),
  ('pygame.sysfont',
   'f:\\python\\python3.7.2\\lib\\site-packages\\pygame\\sysfont.py',
   'PYMODULE'),
  ('pygame.ftfont',
   'f:\\python\\python3.7.2\\lib\\site-packages\\pygame\\ftfont.py',
   'PYMODULE'),
  ('pygame.threads',
   'f:\\python\\python3.7.2\\lib\\site-packages\\pygame\\threads\\__init__.py',
   'PYMODULE'),
  ('pygame.sprite',
   'f:\\python\\python3.7.2\\lib\\site-packages\\pygame\\sprite.py',
   'PYMODULE'),
  ('pygame.cursors',
   'f:\\python\\python3.7.2\\lib\\site-packages\\pygame\\cursors.py',
   'PYMODULE'),
  ('pygame.compat',
   'f:\\python\\python3.7.2\\lib\\site-packages\\pygame\\compat.py',
   'PYMODULE'),
  ('pygame.version',
   'f:\\python\\python3.7.2\\lib\\site-packages\\pygame\\version.py',
   'PYMODULE')])
